email,fname,lname,date_added,street,street2,city,state,province,zip,zip2,country,address,company,phone,gender
aduana1789@yahoo.com,Charles,McCrary,,,,,FL,,,,USA,,,,
afjtj@aol.com,Arlyne,Jefferson,,,,,FL,,,,USA,,,,
asboricua1@yahoo.com,Agustin,Sanchez,,,,,FL,,,,USA,,,,
atlbchfl2@aol.com,Pamela,McCrary,,,,,FL,,,,USA,,,,
bettyhollingshead43@gmail.com,Betty,Hollingshead,,,,,AL,,,,USA,,,,
bobbie6217@gmail.com,Roberta,Johnson,,,,,ID,,,,USA,,,,
bornhauser@sbcglobal.net,Jean,Bornhauser,,,,,CA,,,,USA,,,,
conniejeanw66@yahoo.com,Connie,Williams,,,,,OK,,,,USA,,,,
cucadodger@msn.com,lisa,foss,,,,,CA,,,,USA,,,,
davidpallanes65@gmail.com,David,Pallanes,,,,,AZ,,,,USA,,,,
debrain3d@comcast.net,Debra,Dominguez,,,,,FL,,,,USA,,,,
drsmith67@hotmail.com,Dorothy,Smith,,,,,MS,,,,USA,,,,
eaflynn@optonline.net,Elise,Flynn,,,,,NY,,,,USA,,,,
esmithkors@yahoo.com,eve,smithkors,,,,,LA,,,,USA,,,,
frnickplant@aol.com,Ruthanne,Plant,,,,,VA,,,,USA,,,,
georgiermetz@yahoo.com,Georgie,Metz,,,,,SC,,,,USA,,,,
hjb1954@gmail.com,Helen,Black,,,,,FL,,,,USA,,,,
hoadley61@sbcglobal.net,Nancy,Hoadley,,,,,IL,,,,USA,,,,
holly40272@yahoo.com,Holly,Kaller-Johnson,,,,,KY,,,,USA,,,,
janis@austin.rr.com,Janis,Smolucha,,,,,TX,,,,USA,,,,
jeanienewcomer@gmail.com,Jeanie,Newcomer,,,,,MD,,,,USA,,,,
jlockard4906@wowway.com,Jane,Lockard,,,,,MI,,,,USA,,,,
johnlcusack@att.net,John,Cusack,,,,,NY,,,,USA,,,,
jparkerwilliams@yahoo.com,Jacqueline,Parker,,,,,FL,,,,USA,,,,
jrmccort@gmail.com,Jessica,McCort,,,,,PA,,,,USA,,,,
katjam4233@yahoo.com,Kathleen,Kane,,,,,SC,,,,USA,,,,
kcpjs@optonline.net,Kathy,Cirone,,,,,NY,,,,USA,,,,
ktt1328@windstream.net,Laurie,Tucker,,,,,GA,,,,USA,,,,
lady851@hotmail.com,Dorothy,White,,,,,MA,,,,USA,,,,
lsw106@hotmail.com,Linda,Wilson,,,,,MA,,,,USA,,,,
magicman4477@yahoo.com,Victor,Fontes,,,,,KS,,,,USA,,,,
magicman4477@yahoo.com,Victor,Fontes,,,,,KS,,,,USA,,,,
marye127@atlanticbb.net,mary,wigger,,,,,MD,,,,USA,,,,
milnalj@outlook.com,Mildred,Ramos,,,,,PA,,,,USA,,,,
mmkuntz@centurytel.net,Sherry,Kuntz,,,,,AL,,,,USA,,,,
moomapam@optonline.net,Pam,Adamovich,,,,,NY,,,,USA,,,,
mwalters5177@yahoo.com,Michael,Walters,,,,,IA,,,,USA,,,,
najsumar@gmail.com,Najmudin,Sumar,,,,,MN,,,,USA,,,,
nascar2488042@yahoo.com,Sandra,Davis,,,,,TX,,,,USA,,,,
nhumbarger@adleta.com,nancy,humbarger,,,,,TX,,,,USA,,,,
normaballesteros69@gmail.com,Norma Jean,Ballesteros,,,,,OK,,,,USA,,,,
revansrn@gmail.com,Randa,Evans,,,,,TX,,,,USA,,,,
rockymountains07@yahoo.com,sophia,rutiglisno,,,,,NJ,,,,USA,,,,
sewbiz@charter.net,linda,knoche,,,,,WI,,,,USA,,,,
sorrellsjudy@hotmail.com,Judy,Sorrells,,,,,IN,,,,USA,,,,
sricha@twcny.rr.com,Sharon,Richards,,,,,NY,,,,USA,,,,
sruyle05@gmail.com,Stephanie,Ruyle,,,,,IL,,,,USA,,,,
summerinthecape@hotmail.com,Abbie,Polak,,,,,FL,,,,USA,,,,
taylorcloset927@yahoo.com,Jessica,Gipson,,,,,ME,,,,USA,,,,
tjakub7@aol.com,Tamara,Jakub,,,,,NJ,,,,USA,,,,
watsoninc2005@yahoo.com,Hattie,Watson,,,,,CT,,,,USA,,,,
yesir1alrick@yahoo.com,Rhonda,Alrick,,,,,MI,,,,USA,,,,
margiekilgore@yahoo.com,margie,kilgore,,,,,TN,,,,USA,,,,
rmbt58@aol.com,Rosemary,Taylor,,,,,FL,,,,USA,,,,
kmoore@rtconnect.net,Katherine,Henrichsen,,,,,WY,,,,USA,,,,
diana.l.dale2.civ@mail.mil,Diana,Dale,,,,,IL,,,,USA,,,,
cccarnine@aol.com,Courtney,Carnine,,,,,LA,,,,USA,,,,
meetbryon@yahoo.com,Bryon,Reap,,,,,TX,,,,USA,,,,
grandpakennysmith@gmail.com,Kenneth,Smith,,,,,IL,,,,USA,,,,
amylscales@yahoo.com,Amy ,Scales,,,,,,,,,,,,,
johngelnar@aol.com,John ,Gelnar,,,,,,,,,,,,,
cunningham.bruce@gmail.com,Bruce,Cunningham,,,,,,,,,,,,,
jenasaqua@gmail.com,Tina ,Napolitano,,,,,,,,,,,,,
krishna@kambhampaty.com,Krishna ,Kambhampaty,,,,,,,,,,,,,
