email,fname,lname,date_added,street,street2,city,state,province,zip,zip2,country,address,company,phone,gender
blancajunk58@gmail.com,Blanca,navarro,21-Apr,19518 pine cluster ln,,humble,TX,,77346,,United States,,,2818120252,
mmite@mail2leo.com,Rita,Hubbs,21-Apr,12258 Ranch Rd 2169,,Junction,TX,,76849,,United States,,,325-446-3030,
cveaux@aol.com,Carl,Veaux,21-Apr,3705 SE 3rd PL,,Cape Coral,FL,,33904,,United States,,,239-549-7265,
mikedent@juno.com,michael,podlusky,21-Apr,9275 123rd ave n,,LARGO,FL,,33773,,United States,,,7275812660,
rhbcpa@lycos.com,Renee,Browning,21-Apr,4227 Shady Grove,,Wichita Falls,TX,,76308,,United States,,,940-704-6881,
ssranchtx@yahoo.com,J Fred,Hubbs,21-Apr,P O Box 242,,Junction,TX,,76849,,United States,,,3254463030,
bjohnson@shelbytitle.com,Brandi,j,21-Apr,1846 FM 414,,Center,TX,,75935,,United States,,,93695983104,
hernandeze@caller.com,Erika,hernandez,21-Apr,9320 south padre island drive #1203,,corpus christi,TX,,78418,,United States,,,361-228-1820,
dajc1234@gmail.com,Danielle,Muniz,21-Apr,11010 Harding Dr.,,Port Richey,FL,,34668,,United States,,,7274856960,
pattycortes2004@yahoo.com,Patricia,Rubio,21-Apr,8162 Richmond Ave 1020,,Houston,TX,,77063,,United States,,,7132039480,
darbenn@gmail.com,Darlene,Benning,21-Apr,7412 lady suzannes court,,Austin,TX,,78729,,United States,,,512-925-5557,
mztz@aol.com,Rich,Connell,21-Apr,2852 sw plass ave,,Topeka,KS,,66611,,United States,,,785-215-6187,
daijari@gmail.com,Jerry,Decker,21-Apr,1645 Sunset Dr Apt 81,,San Angelo,TX,,76904,,United States,,,3255000710,
tfiveo@yahoo.com,trinidad,nazem,21-Apr,2002 Fairmeadow Dr.,,Richardson,TX,,75080,,United States,,,4695859728,
eucrasy54@yahoo.com,DONALD,MOORE,21-Apr,1769 LONGBOAT DRIVE,,ELK GROVE VILLAGE,IL,,60007,,United States,,,847-352-9245,
dam52@iwon.com,Doug,Muckelroy,21-Apr,23410 Baneberry,,Magnolia,TX,,77355,,United States,,,7133027903,
hdhillin@hotmail.com,Harold,Hillin,21-Apr,10673 grayson st,,Jacksonville,FL,,32220,,United States,,,9045253116,
vinebike@yahoo.com,eLAINE,vINEYARD,21-Apr,4686 bRIDLE WOOD DR,,dALLAS,TX,,75211,,United States,,,214-330-7270,
biomel17@gmail.com,melody,crowder,21-Apr,po box 2541,,presidio,TX,,79845,,United States,,,2546313040,
vedderfandee@hotmail.com,Dolores,Collard Hinds,21-Apr,212 S Aurora Avenue,,Clearwater,FL,,33765,,United States,,,727-667-0221,
rockitz63@gmail.com,Pamela,Relitz,21-Apr,458 Pro Drive,,Nekoosa,WI,,54457,,United States,,,847-223-2931,
sandybross@yahoo.com,sandy,bross,21-Apr,801 RIVER ROAD #221,,san marcos,TX,,78666,,United States,,,830-351-0012,
sandybross@yahoo.com,Sage,Bross,21-Apr,801 RIVER RD APT 221,,San Marcos,TX,,78666,,United States,,,830-351-0012,
bnwasson24@gmail.com,Bryan,Wasson,21-Apr,17016 West Shiloh Avenue,,Goodyear,AZ,,85338,,United States,,,6233264534,
hessdns@msn.com,David R,Hess,21-Apr,13 Pilot Point,,Wichita Falls,TX,,76306,,United States,,,9407813626,
priscilla.y.villarreal@gmail.com,Priscilla,Villarreal,21-Apr,7602 vista verde,,Houston,TX,,77087,,United States,,,7132496782,
sdmartin29@outlook.com,SHARON,MARTIN,21-Apr,1400 OLD BARTOW/EAGLE LK RD #1212,,BARTOW,FL,,33830,,United States,,,813-416-5159,
lin13750@hotmail.com,Linda,Haas,21-Apr,13750 Nogales Dr.,,Del MaR,CA,,92014,,United States,,,8587946211,
farmhouse1970@yahoo.com,Karla,Dietz,21-Apr,PO Box 161,,Waring,TX,,78074,,United States,,,3252124108,
moran9417@aol.com,Edward,Moran,21-Apr,85 W 38th st,,Bayonne,NJ,,7002,,United States,,,2014373562,
pcgarcia@earthlink.net,pauline,garcia,21-Apr,7010 bill hughes rd,,austin,TX,,78745,,United States,,,5129474814,
mvsevi@msn.com,Mark,Teel,21-Apr,1127 SW Long Creek LN,,Bend,OR,,97702,,United States,,,541-410-9116,
brian.jurries@yahoo.com,Brian,Jurries,21-Apr,22634 Hickory hill SQ APT 418,,Ashburn,VA,,20148,,United States,,,8062397439,
bcros97@yahoo.com,Susan,Cros,21-Apr,337 W 34TH STREET,,San Pedro,CA,,90731,,United States,,,3107226135,
dajc1234@gmail.com,Danielle,Muniz,21-Apr,11010 Harding Dr.,,Port Richey,FL,,34668,,United States,,,7274856960,
pjvw34@yahoo.com,PAMELA,VANWINKLE,21-Apr,105 N ERATH,,IREDELL,TX,,76649,,United States,,,2543642236,
brawleylori@yahoo.com,Lori,Brawley,21-Apr,869 Crestmont Drive,,Waynesville,NC,,28786,,United States,,,9546081184,
cherokeeblues61@gmail.com,Cheyenne,Lancaster,21-Apr,55 GENTRY DRIVE,,McDonough,GA,,30252,,United States,,,678-860-2751,
elgueroalan@sbcglobal.net,Alan,White,21-Apr,441 forrest hill lane,,GRAND PRAIRIE,TX,,75052-5138,,United States,,,972-849-4252,
kpetties@gmail.com,Kimmberly,petties,21-Apr,8300 canyon street 136,,Houston,TX,,77051,,United States,,,8323688011,
arbitr@sbcglobal.net,Alex,Rubin,21-Apr,1914 S Jonathan Dr,,Round Lake,IL,,60073,,United States,,,224-715-0002,
foxmulder@sbcglobal.net,Joanne,Keel,21-Apr,4939 Monticello Blvd,,Richmond Heights,OH,,44143,,United States,,,440-823-8251,
jones10paula@gmail.com,Paula,Hoffman,21-Apr,3602 Golfview Dr.,,Mechanicsburg,PA,,17050,,United States,,,717-425-9072,
elkabowe@yahoo.com,Elka,Bowe,21-Apr,5901 Wilson Rd NW,,Lancaster,OH,,43130,,United States,,,6144771394,
robelady@hotmail.com,shelly,pitt,21-Apr,305e.hawthorne rd,,spokane,WA,,99218,,United States,,,509701-1305,
gamemonkeyvt@gmail.com,Dave,McCausland,21-Apr,25 DUCK POND RD,,BARTON,VT,,5822,,United States,,,802-745-8006,
tree0123@yahoo.com,Sandra,Davis,21-Apr,8606 Hilo Trail South,,Cottage Grove,MN,,55016,,United States,,,651-458-1628,
jfugitt@austin.rr.com,Jeff,fugitt,21-Apr,1411 Hunter ace way,,Cedar park,TX,,78613,,United States,,,5126538295,
ejwoollen@earthlink.net,jean,woollen,21-Apr,1611 sundrop ln se,,olympia,WA,,98501,,United States,,,360-753-1972,
ejwoollen@earthlink.net,emma jean,woollen,21-Apr,1611 sundrop,,olympia,WA,,98501,,United States,,,360-753-1972,
tohrmundt1@gmail.com,Tammy,Ohrmundt,21-Apr,76321 Overseas Hwy,,Islamorada,FL,,33036,,United States,,,352-346-6543,
jvalentien@utexas.edu,Jacob,Valentien,21-Apr,8427 lorrie dr.,,houston,TX,,77025,,United States,,,713-829-6003,
abuelo66@hotmail.com,,Beaumont,21-Apr,7600 E Rarham Rd,Apt #213,Miami,FL,,33186,,United States,,,,
crlouderback@comcast.net,Cosby,Louderback,21-Apr,95 N ASHWOOD AVE,APT 610,Henrico,VA,,23294,,United States,,,,
debaun2000@yahoo.com,MARILEE,DE BAUN,21-Apr,11143 Gaviota Ave,,VENTURA,CA,,93003,,United States,,,,
dreamin2win@gmail.com,Chris,Taylor,21-Apr,18 Spruce Drive,,Granada HIlls,CA,,91344,,United States,,,,
dshuesr@yahoo.com,Dennis,Shue,21-Apr,2509 W. Patterson Ave,,Medford,NJ,,8055,,United States,,,,
edmonds.jennifer@gmail.com,Jennifer,Edmonds,21-Apr,1705A Ridgemar Circle,,Chicago,IL,,60618,,United States,,,,
jlhrrs77@gmail.com,Joel,Harris,21-Apr,W177 N9111 St Franacis Dr,,Monroe,LA,,71201,,United States,,,,
jlukas001@aol.com,John,Lukaszewski,21-Apr,8797 Marbach Road,30303,Menomonee Falls,WI,,53051,,United States,,,,
martinrandall@hotmail.com,Randall,Marrtin,21-Apr,18 Spruce Drive,,San Antonio,TX,,78227,,United States,,,,
maryshue@yahoo.com,Mary,Shue,21-Apr,8 ann marie drive,,Medford,NJ,,8055,,United States,,,,
paulbiedka@hotmail.com,paul,biedka,21-Apr,16801 SE 1st St,apt 32,hamilton,NJ,,8610,,United States,,,,
pp10751@gmail.com,peggyp,parrish,21-Apr,240 W. Division St.,,vancouver,WA,,98684,,United States,,,,
sandestrom@hotmail.com,Sandra,Strom,21-Apr,15902 LINVILLE ROAD,,Forks,WA,,98331,,United States,,,,
summitonline@sbcglobal.net,James,E. Gribble III,21-Apr,10339 Tippecanoe,,ROGERS,AR,,72756,,United States,,,,
tgonzalez05@satx.rr.com,Thomas,Gonzalez,21-Apr,,,San Antonio,TX,,78245,,United States,,,,
310titan@gmail.com,Patrick,Folger,21-Apr,20545 Madrona Ave,,Torrance,CA,,90503,,United States,,,3103506134,
777scot@gmail.com,Scot,Timmis,21-Apr,2 clearview drive,,portland,CT,,6480,,United States,,,860-638-7096,
abatidf@aol.com,ellen,abernathy,21-Apr,3941 autumn ln,,bedford,TX,,76021,,United States,,,8176850854,
adellmaker@yahoo.com,Arlan,Ellmaker,21-Apr,1877 Doric Ave,,The Villages,FL,,32162,,United States,,,386-965-1399,
al.shaffer@comcast.net,Al,Shaffer,21-Apr,6 Staffordshire Road,,Cherry Hill,NJ,,8003,,United States,,,856-424-8338,
alan.pancratz@charter.com,Alan,Pancratz,21-Apr,17102 East baltic Drive # H,,Aurora,CO,,80013,,United States,,,720-810-5477,
ALAZZ2000@OUTLOOK.COM,ANDREA,LAZZARA,21-Apr,1508 RICHMOND RD,,COLUMBIA,TN,,38401,,United States,,,9312155020,
alcinshaffer@comcast.net,Cindy,Shaffer,21-Apr,6 Staffordshire Road,,Cherry Hill,NJ,,8003,,United States,,,856-424-8338,
alex.harrington@gmail.com,Alex,Harrington,21-Apr,PO Box 7452,,Chandler,AZ,,85246,,United States,,,702-577-0209,
ali3allen@hotmail.com,Allison,Allen,21-Apr,5231 W Strong St,,Chicago,IL,,60630,,United States,,,7739544648,
amy.shavelson@hotmail.com,Amy,Shavelson,21-Apr,2315 Verona Street #2,,Bellingham,WA,,98229,,United States,,,360-920-9563,
andersoncl2002@yahoo.com,carol,anderson,21-Apr,200 williamsburg ct,,albany,NY,,12203,,United States,,,518-442-3546,
angela.simmons41@yahoo.com,Angela,Simmons,21-Apr,4910 Norton Dr,,Killeen,TX,,76542,,United States,,,254-213-6258,
angelito_baal@yahoo.com,Angelito,Baal,21-Apr,535 Lilac Drive,,Middletown,DE,,19709,,United States,,,3024642678,
anniestaffaroni@yahoo.com,annmarie,staffaroni,21-Apr,1718 s 58th,,west allis,WI,,53214,,United States,,,2623275350,
ashleynicoleblondie@gmail.com,Ashley,Robinson,21-Apr,13841 S. Robinson Ave.,,Oklahoma City,OK,,73170,,United States,,,405-694-5519,
azalia@wowway.com,William,Harry,21-Apr,40821 Firesteel,,Sterling Heights,MI,,48313,,United States,,,5862912158,
azcandyraindrop@yahoo.com,Danica,Scott,21-Apr,245 s 56th street 51,,Mesa,AZ,,85206,,United States,,,4805534620,
bbodinger@yahoo.com,Bruce,Bodinger,21-Apr,1 Hoffman Court,,East Brunswick,NJ,,8816,,United States,,,732-613-8251,
bears@web-access.net,Art,Michon,21-Apr,201 Bowie St,,Santa Anna,TX,,76878,,United States,,,325-348-3548,
bentonandassociates@verizon.net,Bill,Benton,21-Apr,4255 Buckskin Lake Drive,,Ellicott City,MD,,21042,,United States,,,410 531-6160,
billb@nmsu.edu,Bill,Byhower,21-Apr,286 Day Dreamer Drive,,Las Cruces,NM,,88005,,United States,,,5755269429,
bjest@aol .com,Brenda,Estes,21-Apr,47627 Dingman Pt Road,,Alexandria Bay,NY,,13607,,United States,,,3154829678,
bk3733@gmail.com,Barrie,Klein,21-Apr,3210 Bermuda Isle Circle,1228,Naples,FL,,34109,,United States,,,2392481094,
bobbie6217@gmail.com,Roberta,Johnson,21-Apr,2948 E. Heartleaf Lane,,Boise,ID,,83716,,United States,,,2087245701,
bowmancomputers@aol.com,Gigi,Bowman,21-Apr,8 Bass Court,,Huntington,NY,,11743,,United States,,,631-351-0168,
bpaul@mail.com,Paul,Conrow,21-Apr,928 Cardenas Dr. SE,,Albuquerque,NM,,87108,,United States,,,505-508-0823,
brand49895@aol.com,Betty,Randolph,21-Apr,33839 Cyclone Lane,,Wagoner,OK,,74467,,United States,,,918-485-5956,
brisand77@hotmail.com,Brian,Sanders,21-Apr,863 W 3875 S,,Riverdale,UT,,84405,,United States,,,(801) 644-16,
bruchey1@verizon.net,William,Schepleng,21-Apr,4326 Foxglove Ct.,4326 Foxglove Ct.,Belcamp,MD,,21017,,United States,,,410-652-5237,
Bryantrj@pldi.net,Roxana,Bryant,21-Apr,PO Box 175,4320 S. Hwy 132,Drummond,OK,,73735,,United States,,,580-541-3645,
Bubba@cybermesa.com,Bill,Weeks,21-Apr,2012 Palenque Dr SE,,Rio Rancho,NM,,87123,,United States,,,505-798-9734,
buccia@q.com,ANDREA,BUCCI,21-Apr,3210 e rocky slope dr.,,PHOENIX,AZ,,85044,,United States,,,4807596694,
bules99@gmail.com,Julie,Heinzel,21-Apr,4243 N. Hermitage 1B,,Chicago,IL,,60613,,United States,,,773-209-3247,
bunny2@cox.net,Barbara,Haag,21-Apr,8632 E Bonnie Rose Av,,Scottsdale,AZ,,85250,,United States,,,480-947-9734,
camistuff@outlook.com,Cami,Sanders,21-Apr,863 W 3875 S,,Riverdale,UT,,84405,,United States,,,(801) 458-88,
cariadcook@gmail.com,Barb,Cook,21-Apr,17555 County Road,,Calhan,CO,,80808,,United States,,,719-347-2688,
Caridadjosy@Yahoo.com,Caridad,Hilaire,21-Apr,14007 Heron Pond Court,,Orlando,FL,,32824,,United States,,,321-299-5903,
carifaves@gmail.com,Carolyn,Jackson,21-Apr,1771 Penfield Road,,Penfield,NY,,14526,,United States,,,5859443316,
carmanc5@aol.com,Harry,Hewlett,21-Apr,3311 S Ivy Way,,Chandler,AZ,,85248,,United States,,,480 5886688,
carol.broughton@gmail.com,Carol,Broughton,21-Apr,649 Iroquois St,,Merritt Island,FL,,32952,,United States,,,3214521364,
carolincolo@q.com,carol,betz,21-Apr,725 marble street,,broomfield,CO,,80020,,United States,,,3034663409,
carolineccp@gmail.com,Caroline,Pugliese,21-Apr,1700 Malcolm Ave #307,,Los Angeles,CA,,90024,,United States,,,203-249-8291,
cathy.mayfield@mayfco.com,Cathy,Mayfield,21-Apr,3521 Twilight,,Pahrump,NV,,89048,,United States,,,7755376280,
cdr1936@yahoo.com,carl,rayborn,21-Apr,4315 cr 71,,centre,AL,,35960,,United States,,,2569277915,
champo15@centurylink.net,Robert,Morris,21-Apr,4563 Clark Station Road,,Greenville,OH,,45331,,United States,,,9375471491,
charlesessex@ntin.net,Charles,Essex,21-Apr,147 Mohave Dr East,,Lake Kiowa,TX,,76240,,United States,,,940-668-7110,
chienee@aol.com,steve,maisel,21-Apr,407 waterlily way,,summerville,SC,,29483,,United States,,,8434820705,
choctawfrench@yahoo.com,Mary,Childers,21-Apr,1763 Shady Dell Lane,,Idabel,OK,,74745,,United States,,,5802082710,
chood111@yahoo.com,Cynthia,Hood,21-Apr,145 Pleasant Valley Dr,,West Columbia,TX,,77486,,United States,,,979-345-5753,
chrisaliles2@gmail.com,chris,liles,21-Apr,985 stonecipher road,,tuscumbia,AL,,35674,,United States,,,2566278645,
chrismanco@juno.com,Randall,Chrisman,21-Apr,1501 Broken Bow Trail,,Carrollton,TX,,75007,,United States,,,972-492-8337,
christopher.fitzer@gmail.com,Christopher,Fitzer,21-Apr,1514 Postbridge Ct.,,Arlington,TX,,76012,,United States,,,817-832-2653,
chrysnatali@ymail.com,sheryl,schneider,21-Apr,206 sun lane,,farmington,MO,,63640,,United States,,,573-567-0238,
cindy.bledsoe@verizon.net,Cindy,Blesoe,21-Apr,2003 Griffith Road,,Falls Church,VA,,22043,,United States,,,7037340936,
cinhort@aol.com,cynthia,horton,21-Apr,5 blue wing pl,,santa fe,NM,,87508,,United States,,,5054244734,
ckwood98@gmail.com,Catharina,Underwood,21-Apr,6317 Alvarez drive,,Fort Wayne,IN,,46815,,United States,,,2602671462,
Clc1512@aol.com,Carol,Caughman,21-Apr,"2600 Foothill Blvd, Apt 318",,La Verne,CA,,91750,,United States,,,(909) 542-91,
clemturn@att.net,Paul,Turner,21-Apr,3819 N. Francisco,,Chicago,IL,,60618,,United States,,,773-407-4424,
cliffbart@comcast.net,clifford,bartz,21-Apr,7601 e. 112th,,crown point,IN,,46307,,United States,,,2196629148,
cloud1936@gmail.com,robert,greenleaf,21-Apr,760 n tegner,,wickenburg,AZ,,85390,,United States,,,9282210380,
conservativechristine@gmail.com,Aneleh,Dayer,21-Apr,241 West Alameda Avenue Apt 8,,Burbank,CA,,91502,,United States,,,661-313-6346,
cover@yahoo.com,Bob,cover,21-Apr,518 Saltlick trace,,Peachtree City,GA,,30269,,United States,,,7704878782,
coverbob@yahoo.com,Bob,Cover,21-Apr,518 Saltlick trace,,Peachtree city,GA,,30269,,United States,,,7704878782,
Cr4018@gmail.com,Carlos,Romeo,21-Apr,61536 CR 35,,Goshen,IN,,46528,,United States,,,5748492279,
craig.kimble@zoominternet.net,Craig,Kimble,21-Apr,152 Township Road 1353,,Crown City,OH,,45623,,United States,,,740-451-0636,
csenska@verizon.net,Carl,Senska,21-Apr,5109 Coffee Tree Lane,,Syracuse,NY,,13212,,United States,,,315-254-7994,
cswarner2009@hotmail.com,Carol,Warner,21-Apr,2034 Willow Lenoxburg Rd,,Brooksville,KY,,41004,,United States,,,6062171920,
Ctpac@outlook.com,Chris,Pacific,21-Apr,1172 east grover street,Unit b,Lynden,WA,,98264,,United States,,,3602236260,
cynkub@verizon.net,Cindy,Koebke,21-Apr,1239 Crockett Lane,,Silver Spring,MD,,20904,,United States,,,3016422010,
d_keel@sbcglobal.net,Dale,Keel,21-Apr,4939 Monticello Blvd,,Richmond Heights,OH,,44143,,United States,,,4408238250,
daisies91174@yahoo.com,Nicole,Lamberti,21-Apr,417 Hoyt Avenue,,Staten Island,NY,,10301,,United States,,,7184206515,
dajc1234@gmail.com,danielle,muniz,21-Apr,11010 harding dr,,port richey,FL,,34668,,United States,,,7274856960,
dajohnson@msn.com,David,Johnson,21-Apr,3983 La Costa Island Ct,,Punta Gorda,FL,,33950,,United States,,,6367348209,
dan.wishart@inergyautomotive.com,Dan,Wishart,21-Apr,6774 White Pines Drive,,Brighton,MI,,48116,,United States,,,8102259298,
Danoles94@aol.com,Brian,Wingo,21-Apr,Po box 10707,,Naples,FL,,34101,,United States,,,2396418461,
darlingdebbie20022002@yahoo.com,Debbie,Kolthoff,21-Apr,5370 EVENING LIGHT CT,,COLO SPGS,CO,,80917,,United States,,,7194394409,
darroid44@yahoo.com,Darryl,Maloid,21-Apr,270 Vistawood dr.,,Marietta,GA,,30066,,United States,,,5049820282,
dasherrill@gmail.com,David,Sherrill,21-Apr,2509 Silverstone Lane,,Knoxville,TN,,37932,,United States,,,865-755-5391,
david.james@excite.com,David,James,21-Apr,3663 Solano Ave.,Apt. 12,Napa,CA,,94558,,United States,,,7076374524,
Davis2906@outlook.com,Heather,Davis,21-Apr,13091 Sycamore Rd,,Laurel,DE,,19956,,United States,,,3025691278,
dblackner@yahoo.com,David,Blackner,21-Apr,1992 Michigan Avenue,,Salt Lake City,UT,,84108,,United States,,,8015821412,
ddjk2011@yahoo.com,Donna,Kellogg,21-Apr,146 San Gabriel ave,,Clovis,CA,,93612,,United States,,,5594785483,
ddmccld1010@yahoo.com,dodi,mccloud,21-Apr,1773 merritt st,,old hickory,TN,,37138,,United States,,,6158870280,
debbiemcintosh89@gmail.com,Debbie,McIntosh,21-Apr,5033 Kens Court,,Stockbridge,GA,,30281,,United States,,,404-587-0090,
debunderwood@yahoo.com,Debbie,Underwood,21-Apr,12646 la solana dr,,redlands,CA,,92373,,United States,,,9098006368,
dgriffes@gmail.com,Dean,Griffes,21-Apr,3368 Waalkes St,,Muskegon Heights,MI,,49444,,United States,,,2312886915,
dhobbitmar@aol.com,Diane,Martin,21-Apr,930 S. El Molino,,Pasadena,CA,,91106,,United States,,,626-583-8821,
digwen@yahoo.com,Wendy,Gordon,21-Apr,15113 Deer Meadow Dr,,Lutz,FL,,33559,,United States,,,813-406-3279,
disneygoer1@gmail.com,joyce,schwartz@gmail.com,21-Apr,486 northwestern ave,,altamonte springs,FL,,32714,,United States,,,4077744249,
dj63@ctcn.net,Jennifer,Gepfrey,21-Apr,3650 E. Miami Shelby Rd.,,Piqua,OH,,45356,,United States,,,9372144014,
djibri@mail.com,Bruce,Ivie,21-Apr,1125 Gannon Drive,,Plano,TX,,75025,,United States,,,2146688043,
DoloresJHeath41@msn.com,Dolores,Heath,21-Apr,1309 N 31st St,,Colorado Springs,CO,,80904,,United States,,,7196352314,
dorisrowe54@comcast.net,Doris,Rowe,21-Apr,626 Whiskey Sprngs Rd.,,Boling Springs,PA,,17007,,United States,,,7172586367,
doug1124@hotmail.com,Doug,Jones,21-Apr,4850 S Lake Park,Apt 2502,Chicago,IL,,60615,,United States,,,3129124433,
drf1000@yahoo.com,Donald,Fontes,21-Apr,7 Eli Whitney St,,Westborough,MA,,1581,,United States,,,508-366-6596,
drumr26@msn.com,Robert,Cantando,21-Apr,229 alliston road,,springfield,PA,,19064,,United States,,,610-328-9370,
dshuesr@yahoo.com,Dennis,Shue,21-Apr,18 Spruce Drive,,Medford,NJ,,8055,,United States,,,609-760-1400,
Eaf1302@Yahoo.com,Errin,Fass,21-Apr,5075 Marla Drive,,Boynton Beach,FL,,33436,,United States,,,6464061962,
eaglesforjack@gmail.com,tina,reynolds,21-Apr,605 s section ave,,spring valley,MN,,55975,,United States,,,4322588912,
Ebean30@gmail.com,Kimberley,Bean,21-Apr,3404 Stocker Street #12,,Los Angeles,CA,,90008,,United States,,,3236521731,
efernandez@national.aaa.com,Elizabeth,Fernandez,21-Apr,536 Fox Hunt Circle,,Longwood,FL,,32750,,United States,,,407-421-9063,
egghead0670@gmail.com,Richard,Stallard,21-Apr,7089 Stallion Dr,,Edwardsville,IL,,62025,,United States,,,6186592331,
eileencover@yahoo.com,Eileen,Cover,21-Apr,518 Saltlick Trace,,Peachtree city,GA,,30269,,United States,,,7704878782,
ejsporleder@att.net,ej,sporleder,21-Apr,3340 old collinsville road,,swansea,IL,,62226,,United States,,,6182340340,
elgatotres@yahoo.com,Philip,Hicks,21-Apr,26 Mt. Rainier Dr.,,San Rafael,CA,,94903,,United States,,,415-472-2346,
elisaandlucio@yahoo.com,elisa,bermudez,21-Apr,4545 s mission rd trl 383,,tucson,AZ,,85746,,United States,,,5204619348,
elisse@frontiernet.net,elisse,goldstein,21-Apr,30767 Coal Heritage Road,Landgraff,Eckman,WV,,24829,,United States,,,3048622031,
elizabethwillett@gmail.com,Elizabeth,Rogers,21-Apr,1600 Dunes Street,Apt. 304,Fredericksburg,VA,,22401,,United States,,,540-846-0327,
ellingboer@yahoo.com,richard,ellingboe,21-Apr,68755 Raposa Road,,Cathedral City,CA,,92234,,United States,,,7606997436,
elpost@twcny.rr.com,Elizabeth,Post,21-Apr,8077 Deeley Road,,Blossvale,NY,,13308,,United States,,,315-245-0937,
Elyksnave@att.net,Kyle,Evans,21-Apr,1538 fallen leaf dr sw,,Marietta,GA,,30064,,United States,,,6786348723,
emerson.parker@verizon.net,Louis,Parker,21-Apr,2805 Cypress Ct.,,Plant City,FL,,33566,,United States,,,813-928-0302,
escalady2003@sbcglobal.net,Melissa,Hoffman,21-Apr,4886 South Point,,Discovery Bay,CA,,94505,,United States,,,925-516-4480,
evelyndriver@hotmail.com,Evelyn,Driver,21-Apr,519 Coventry Ct,,Nashville,TN,,37211,,United States,,,615-364-5574,
fdr6760@aol.com,David,Reiss,21-Apr,3600 Idlewood Loop,,The Villages,FL,,32162,,United States,,,302-368-0347,
Fiji0519@yahoo.com,Yeillie,Concepcion,21-Apr,13664 S Kittyhawk Ct,,Plainfield,IL,,60544,,United States,,,(630)605-148,
firstfruit2@yahoo.com,Angela,Dabney,21-Apr,4028 Tangle Drive,,Richmond,VA,,23228,,United States,,,804.303.4037,
fjbet13@aol.com,Fred,Beteille,21-Apr,861 Glen Abbey Way,,Melbourne,FL,,32940,,United States,,,3127577725,
frances.brazeau@comcast.net,Frances,Brazeau,21-Apr,175 Godfrey Dr,,Norton,MA,,2766,,United States,,,5086220702,
ga9001@gmail.com,Georgiann,Ackley,21-Apr,9001 Oakcrest Circle,,Mount Dora,FL,,32757,,United States,,,352-735-6157,
garroyos@mac.com,Glory,Arroyos,21-Apr,3100 garden villa Ln,,Austin,TX,,78704,,United States,,,512-5850434,
gator959@gmail.com,Scott,Shadoin,21-Apr,7268 Woodmont Ave,,Tamarac,FL,,33321,,United States,,,954-461-6869,
GCERNJUL3@GMAIL.COM,GIACOMO,CERNJUL,21-Apr,9925 PINELLAS PARK ROAD,,BOCA RATON,FL,,33428,,United States,,,5619451491,
generosity101@gmail.com,Monica,Fisher,21-Apr,9940 Richmond Ave,2012,Houston,TX,,77042,,United States,,,8323786068,
george@goffmc.com,George,St Pierre,21-Apr,875 Benchwood Dr,,Winter Springs,FL,,32708,,United States,,,4077745727,
georgettemosley@yahoo.com,georgette,mosley,21-Apr,113 pearl place,,dunellen,NJ,,8812,,United States,,,732-752-7862,
georgiabeckman@hotmail.com,Georgia,Beckman,21-Apr,719 E Allen ST,,Farmer City,IL,,61842,,United States,,,309-928-2156,
ginger1073@gmail.com,Virginia,Salvito,21-Apr,28 Sherwood Street,,Roslindale,MA,,2131,,United States,,,(617) 469-47,
ginniek@rocketmail.com,Ginnie,Kozak,21-Apr,206 Battery Creek Road,,Beaufort,SC,,29902,,United States,,,843-986-6225,
gladwyas@hotmail.com,Gladys,Wyas,21-Apr,3149 Duquette Drive,,Saint Charles,MO,,63301,,United States,,,636-947-0024,
gldsrd@aol.com,Gladis,Rodriguez,21-Apr,2743 w 70th Street,,Hialeah,FL,,33016,,United States,,,7863446432,
gmputtuck@msn.com,Gary,Puttuck,21-Apr,5820 Waterbury Way,K,Salt Lake City,UT,,84121,,United States,,,4359011328,
Grab@rocketmail.com,Gary,Bordogna,21-Apr,613 Norwood St,,Spartanburg,SC,,29302,,United States,,,8649218586,
grayghost48_66@yahoo.com,Steve,Rollins,21-Apr,3094 Hopewell Rd,,Valley,AL,,36854,,United States,,,706-518-6544,
harkin4@hotmail.com,Jeannette,Harkin,21-Apr,1319 Umbrella tree,,Edgewater,FL,,32132,,United States,,,515-664-5569,
heavensend@gmail.com,chor,eng,21-Apr,1653 calle delicada,,la jolla,CA,,92037,,United States,,,8584594015,
HENHLJ@YAHOO.COM,HENRY,LITTLE,21-Apr,PO BOX 668271,,CHARLOTTE,NC,,28266,,United States,,,704 971-0041,
hgkin3rd@yahoo.com,Harrison,Kincaid,21-Apr,131 Trilby Ave,,Chicopee,MA,,1020,,United States,,,4132221348,
hlavacek_k@yahoo.com,kristin,hlavacek,21-Apr,10121 long st,,lenexa,KS,,66215,,United States,,,913-888-7512,
hrprof24@yahoo.com,Ileana,Arriola,21-Apr,P.O. Box 348232,,Miami,FL,,33234,,United States,,,(305) 316-43,
hydranga@wowway.com,Katherine,Biggs,21-Apr,11853 Danforth,,Sterling Heights,MI,,48312,,United States,,,5862167623,
imauafan@gmail.com,Rodney,Simmons,21-Apr,190 Timber Oak Rd,,Huntsville,AL,,35806,,United States,,,2562700068,
imbekkki@yahoo.com,Rebecca,Sanders,21-Apr,702 N. Pine Hill,,Pinehurst,TX,,77362,,United States,,,9366481886,
imvnc5@aol.com,Manny,Visconti,21-Apr,1020 SW Scrub Oak Avenue,,Palm City,FL,,34990,,United States,,,(561) 706-02,
ipekka@me.com,pat,gasior,21-Apr,20550 haynes st,,winnetka,CA,,91306,,United States,,,3108043669,
ivytrang@live.com,Trang,Nguyen,21-Apr,8815 Sedgemoor dr,,Tomball,TX,,77375,,United States,,,2817458001,
jackgrzybek@verizon.net,Jack,Grzubek,21-Apr,143 Lloyd Ave,,Edgewood,PA,,15218,,United States,,,412-243-7355,
jackiegranchamps@gmail.com,Jackie,Napoleon Granchamps,21-Apr,900 Central Ave #9,,West Hoboken,NJ,,7087,,United States,,,5512004956,
jadelewis@mindspring.com,John,Lewis,21-Apr,10909 Pecan Drive,,La Porte,TX,,77571,,United States,,,2816879149,
jag.chat.travel@gmail.com,Jagadish,Pulakhandam,21-Apr,42708 Redpath Ter,,Ashburn,VA,,20147,,United States,,,7036343311,
JAYCARROLL66@YAHOO.COM,JACKQUELINE,ALEXANDER,21-Apr,5209 YALE RD,,MEMPHIS,TN,,38134,,United States,,,9013141550,
jbaxter25@comcast.net,Janet,Baxter,21-Apr,1750 Queen Palm Way,,North Port,FL,,34288,,United States,,,941-423-4525,
Jbd1125@hotmail.com,Joan,Dorfman,21-Apr,7557 Lockhart Way,,Boynton Beacch,FL,,33437,,United States,,,5617321997,
jburton315@yahoo.com,Jim,Burton,21-Apr,810 Carpenter Way,,Auburn,AL,,36830,,United States,,,3348215514,
jcacioli@comcast.net,Judy,Cacioli,21-Apr,20 Boughton Rd,,Old Lyme,CT,,6371,,United States,,,860-598-9622,
jchdupree@aol.com,Julia,Hebert,21-Apr,4039 WHITE OAK TRACE DRIVE,,BATON ROUGE,LA,,70817,,United States,,,225-755-8022,
jchetkowski@yahoo.com,C Gerald,Chetkowski,21-Apr,227 Skycrest Dr,,Landnberg,PA,,19350,,United States,,,610-274-8352,
jdanlynn@uab.edu,Dan,Lynn,21-Apr,2146 Patton St.,,Hoover,AL,,35226,,United States,,,205-979-3527,
jealzate1@hotmail.com,Juan,Alzate,21-Apr,5132 Lunt,,Skokie,IL,,60077,,United States,,,2247660341,
jeannebabe14@verizon.net,jean,cowley,21-Apr,135 belgrove drive,,kearny,NJ,,7032,,United States,,,201-998-6849,
jeannie.walton@hotmail.com,Jeannie,Walton,21-Apr,2620 N Bon Jean Blvd,,Choctaw,OK,,73020,,United States,,,405-259-9948,
jelizabethc@msn.com,Jennifer,Cleland,21-Apr,108 Gammenthaler Ln,,Harper,TX,,78631,,United States,,,830-459-4143,
jennamariep29@gmail.com,Jenna,Scow,21-Apr,786 Buckskin Ln.,,Spring Creek,NV,,89815,,United States,,,7753404059,
jennypoop@hotmail.com,schilling,schilling,21-Apr,4060 greenwillow ln. w,,jacksonville,FL,,32277,,United States,,,904-250-3075,
jennyvita@yahoo.com,Jennifer,Bartoshevich,21-Apr,169 East Dunstable Rd,,Nashua,NH,,3062,,United States,,,603-521-7155,
jeromeclan@aol.com,Scott,Jerome,21-Apr,9 Ash Grove Place,,KAUKAUNA,WI,,54130-2679,,United States,,,(920) 759-10,
jerrywinde@yahoo.com,Jerry,Winde,21-Apr,22043Silver Springs Dr,,South Bend,IN,,46628,,United States,,,574-277-0927,
Jewleejane@yahoo.com,Yuli,Juarez,21-Apr,4028 Perlita Ave,,Los Angeles,CA,,90039,,United States,,,213 3802734,
jfugitt@austin.rr.com,Jeff,Fugitt,21-Apr,1411 Hunter Ace Way,,Cedar Park,TX,,78613,,United States,,,5126538295,
jherbe1@comcast.net,John,Herbert,21-Apr,319 N. Hamilton St,,Lawton,MI,,49065,,United States,,,231-342-7112,
jhogan4738@aol.com,Jackie,Hogan,21-Apr,7530 South 300 West,,Clayto,IN,,46118,,United States,,,317-539-4738,
jhw.9867@gmail.com,Jim,Wilson,21-Apr,5305 7th Court South,,Birmingham,AL,,35212,,United States,,,2052405525,
jillaimee@embarqmail.com,Jill,Allen,21-Apr,616 Hood Farm Rd,,Clayton,NC,,27520,,United States,,,9198682461,
jim.degroot@sbcglobal.net,James,Degroot,21-Apr,10 rickey drive,,conway,AR,,72032,,United States,,,5013279291,
jkp6112@yahoo.com,John,Park,21-Apr,2015 Royal Fern Ct,,Bel Air,MD,,21015,,United States,,,4104335845,
jmassey44@verizon.net,Jim,Massey,21-Apr,221 Glenn road,,Camp Hill,PA,,17011,,United States,,,7177323470,
jmol126@yahoo.com,Jessica,Molina,21-Apr,24779 Sandwedge lane,,Valencia,CA,,91355,,United States,,,6612891600,
jmyoung7114@comcast.net,Jeanne,Young,21-Apr,7114 Antigua Place,,Sarasota,FL,,34231,,United States,,,9419288718,
jnyaguilar@yahoo.com,Jose,Aguilar,21-Apr,1625 Crosshaven Dr.,,Lewisville,TX,,75077,,United States,,,214-532-1216,
joann_guillory@yahoo.com,JoAnn,Guillory,21-Apr,1901 Augusta Dr,#313,Houston,TX,,77057,,United States,,,713-232-9972,
john44314@att.net,JOHN,WILKINS  JR,21-Apr,1754  SUMMIT LAKE BLVD,,AKRON,OH,,44314,,United States,,,3308484962,
jones10paula@gmail.com,Paula,Hoffman,21-Apr,3602 Golfview Dr.,,Mechanicsburg,PA,,17050,,United States,,,7174259072,
joyandtom@msn.com,Thomas,Ewing,21-Apr,11383juniper st.,,Demotte,IN,,46310,,United States,,,2199872477,
jpat1989@yahoo.com,justine,vincent,21-Apr,91 glenridge drive,apt 6,augusta,ME,,4330,,United States,,,2072158372,
jpgrf4@verizon.net,Brian,Solinski,21-Apr,135 Rutherford Place,,Kearny,NJ,,7032,,United States,,,(201) 997-46,
jpwt@aol.com,Joseph,Talvacchia,21-Apr,725 Bentley Ct,,Moorestown,NJ,,8057,,United States,,,8567789845,
jrguillen0103@gmail.com,Jessica,Rios,21-Apr,9523 114th street,1st fl,South Richmond Hill,NY,,11419,,United States,,,6462455770,
julianna49@frontier.com,Julie,Catwright,21-Apr,3565 N Benton,,kingman,AZ,,86409,,United States,,,928-303-2015,
jullyett@hotmail.com,Julieta,Winkle,21-Apr,Nature Brook Walk Se,,smyrna,GA,,30082,,United States,,,4045501856,
just_tweaky@hotmail.com,Jennifer,Jackson,21-Apr,1109 Bell Ct,,Elyria,OH,,44035,,United States,,,440-324-7845,
justrippin85@gmail.com,Matthew,Basler,21-Apr,1014 E Gorham St,Apt A,Madison,WI,,53703,,United States,,,608-469-3497,
k8kallias@msn.com,Kate,Kallias,21-Apr,500 W 4200 N,,Pleasant View,UT,,84414,,United States,,,801-389-9069,
katellac@yahoo.com,Katella,Coggs,21-Apr,15308 S Williams Ave,,Compton,CA,,90221,,United States,,,213-570-5724,
kathypersons@yahoo.com,Katherine,Persons,21-Apr,3628 Sherman Mayville Rd,,Sherman,NY,,14781,,United States,,,716-761-6474,
katmac@erols.com,kathryn,maclane,21-Apr,1335 ballantrae lane,,mclean,VA,,22101,,United States,,,703 821 3992,
kbutler9150@aol.com,Kathy,Butler,21-Apr,3501 Nautical Drive,,Frisco,TX,,75034,,United States,,,8178058735,
kcampb5939@aol.com,Karen,Campbell,21-Apr,325 w Berkley st,,Philadelphia,PA,,19144,,United States,,,267-259-9878,
kcgirl2us@yahoo.com,Debra,Seehawer,21-Apr,1400 N. Baird St. Lot 71,,Green Bay,WI,,54302,,United States,,,920-227-7306,
kcolbert293@aol.com,Kevin,Colbert,21-Apr,293 Warren Street,,Uniondale,NY,,11553,,United States,,,516-710-3187,
kendrick_jeff@hotmail.com,Jeffrey,Kendrick,21-Apr,1123 Harrison St,,Park Ridge,IL,,60068,,United States,,,kendrick_jef,
kennd22@gmail.com,Kenneth,Davis,21-Apr,9618 Winands Rd,,Randallstown,MD,,21133,,United States,,,410-521-9518,
kerryann0516@aol.com,Kerry,Barry,21-Apr,167 Kent Road,,Howell,NJ,,7731,,United States,,,732-513-8224,
KFISCUS@POHANKAOFSALISBURY.COM,KIMBERLY,FISCUS,21-Apr,5791 MORRIS ROAD,,PITTSVILLE,MD,,21850,,United States,,,4106032892,
kicksmylife23@gmail.com,Aundra,Banks,21-Apr,836 stoney creek ave,,baton rouge,LA,,70808,,United States,,,2253622477,
kimberlygloss@yahoo.com,Kimberly,Gloss,21-Apr,1825 Tyler Trace,,Lawrenceville,GA,,30043,,United States,,,678-525-0493,
KINGSTER64@HOTMAIL.COM,TIM,KING,21-Apr,e2198 GLENVALE,,WAUPACA,WI,,54981,,United States,,,715-258-3931,
kippey1@comcast.net,kimberley,mcilvoy,21-Apr,1815 taft drive,,normal,IL,,61761,,United States,,,309-454-7981,
kitty55@sbcglobal.net,Barbara,Spengler,21-Apr,1347 Del Norte,,Houston,TX,,77018,,United States,,,832-541-8907,
kkosm@live.com,Kim,kosmetschke,21-Apr,2551 ne 165th st,,citra,FL,,32113,,United States,,,3524260633,
kmctyre@msn.com,Katherine,McTyre,21-Apr,632 Florida Ave,,Holly Hill,FL,,32117,,United States,,,3862651534,
kpearson3000@gmail.com,krista,pearson,21-Apr,5934 pale moss lane,,Charlotte,NC,,28269,,United States,,,7042363025,
krslanina@yahoo.com,kristen,slanina,21-Apr,2211 bolinas street,,san diego,CA,,92107,,United States,,,6192788489,
Kruisinger@yahoo.com,Kerry,Ruisinger,21-Apr,1470 NW 64th Terrace,,Kansas City,MO,,64118,,United States,,,8162609197,
l8deis@rcn.com,Lori,Deis,21-Apr,3350 Airport Road Lot 29,,Allentown,PA,,18109,,United States,,,6104430239,
ladrain@sonic.net,Linda,Adrain,21-Apr,571 Biltmore St,,Santa Rosa,CA,,95403,,United States,,,707-577-0783,
lamurray_1@yahoo.com,Louise,Murray,21-Apr,18610 Baughman Dr,,Pearland,TX,,77584,,United States,,,281-489-6096,
Larryf077@verizon.net,Larry,Franklin,21-Apr,21173 Millwood Square,,Sterling,VA,,20165,,United States,,,703-406-2450,
lavonne200338614@yahoo.com,Patricia,Edwards,21-Apr,958 Sand Road,Lot U,Columbus,MS,,39702,,United States,,,6622303976,
lbarron41@att.net,Leona,Barron,21-Apr,13255 Spruce Run Dr,Apt 205,North Royalton,OH,,44133,,United States,,,440-305-2270,
Lcerlins@dncboston.com,Lauma,Cerlins,21-Apr,7 River st,,Natick,MA,,1760,,United States,,,617-624-1504,
leefshngmgc@sympatico.ca,Michael,Lee,21-Apr,505 Finkle st.,Apt. 507,"Woodstock, Ontario, Canad",OH,,N4V 0B4,,United States,,,5195335171,
lemarkusvailes@gmail.com,Lemarkus,Vailes,21-Apr,11511 Ferguson Rd Apt. 1604,3827 Diamond Ave,Dallas,TX,,75215,,United States,,,469-279-4759,
Lennytaffel@gmail.com,Lenore,Taffel,21-Apr,1466 Surf Court NE,,Marietta,GA,,30066,,United States,,,779-633-9052,
letylovesathena@yahoo.com,Leticia,Peddle,21-Apr,3107 Pedernales Dr.,,San Antonio,TX,,78223,,United States,,,2103223582,
limpusher@gmail.com,Shawn,Hung,21-Apr,5000 Orchard Park Cir,Apt 5213,Davis,CA,,95616,,United States,,,9103336699,
lisamarie60622@yahoo.com,lisa,collins,21-Apr,PO box 446,,warsaw,IN,,46580,,United States,,,312-226-0097,
lizmouzakis@rocketmail.com,Elizabeth,Elhaj,21-Apr,1005 Country Club Dr.,,Burbank,CA,,91501,,United States,,,909-969-8343,
lizzyj.reid@gmail.com,Elizabeth,Reid,21-Apr,10900 noble st,,cherry valley,CA,,92223,,United States,,,9517698419,
lkbowsher@yahoo.com,Linda,Bowsher,21-Apr,406 E Maple St,,Celina,TX,,75009,,United States,,,9723823597,
lndkanya9@gmail.com,Ken,Kanya,21-Apr,23 Whitebridge Road,,Auburn,NY,,13021,,United States,,,3152554516,
lopaka043@comcast.net,Robert,Pellegrino,21-Apr,26 Emerald Drive,Enter your address line 2 here,Dracut,MA,,1826,,United States,,,9787941676,
lopezmar0219@gmail.com,Margarita,Lopez,21-Apr,400 East Champion,,Mission,TX,,78574,,United States,,,9562222591,
LORRI_DEMERS@YAHOO.COM,LORRI,DEMERS,21-Apr,3009 RED GRAPE DRIVE,,RALEIGH,NC,,27607,,United States,,,919-889-6838,
lourdes.nichols1557@gmail.com,Lourdes,Nichols,21-Apr,630 Arlington Dr,,West Palm Beach,FL,,33415,,United States,,,561-236-6661,
lovetm@hotmail.com,Elyda,Love,21-Apr,PO Box 3198,,Seminole,FL,,33775,,United States,,,727-398-0530,
lqjohnson@hotmail.com,Louise,Quinton,21-Apr,160 South Street,,Hingham,MA,,2043,,United States,,,781-740-8262,
luck-55814@mypacks.net,Barbara,Hughes,21-Apr,P.O. Box 35,,Boca Grande,FL,,33921,,United States,,,941-964-4273,
luckygatorgirl@aol.com,Amy,McGavock,21-Apr,567 Villa Park Road,,Kissimmee,FL,,34759,,United States,,,8635474435,
LUIS.E.ESTRADA@HOTMAIL.COM,LUIS,ESTRADA,21-Apr,3560 SW 23 TERRACE,,MIAMI,FL,,33145,,United States,,,3052156504,
Luvsbud1@yahoo.com,Donna,Roy,21-Apr,1175 Saint James Ave,,Springfield,MA,,1104,,United States,,,413-788-3832,
lykra_66@yahoo.com,Mary Ann,Lebeouf,21-Apr,380 Alamo st,,Vidor,TX,,77662,,United States,,,4093131678,
m.dowling16@gmail.com,Maia,Dowling,21-Apr,16 Leopold Ave,,West Islip,NY,,11795,,United States,,,6316644347,
mabdunn1@comcast.net,BOB,DUNN,21-Apr,P.O. Box 336,,Rye Beach,NH,,3871,,United States,,,603-964-5763,
magickingdom794@aol.com,Beverly,D'Ambrosio,21-Apr,4 Bonair Ave,,Wakefield,MA,,1880,,United States,,,781-245-2971,
mannbrenda@bellsouth.net,Brenda,Mann,21-Apr,3925 Scotwood Dr,,Nashville,TN,,37211,,United States,,,615-355-2302,
martnres@yahoo.com,karen,martin,21-Apr,414 garfield park ave,,santa rosa,CA,,95409,,United States,,,7075393179,
mary@kzst.com,Mary,Ptak,21-Apr,2520 Sam Drive,,Santa Rosa,CA,,95403,,United States,,,707-695-9717,
maryannkemnitzer54@aol.com,mary ann,kemnitzer,21-Apr,45 troupe street,,buffalo,NY,,14210,,United States,,,716-824-5157,
maryshue@yahoo.com,Mary,Shue,21-Apr,18 Spruce Drive,,Medford,NJ,,8055,,United States,,,856-983-8032,
mason12059@yahoo.com,Cynthia,Mason,21-Apr,7401 Kingston Dr,,Rowlett,TX,,75089,,United States,,,9724758138,
masterggg@sbcglobal.net,GERALD,GLOVER,21-Apr,31909 WILLIAMSBURG,,SAINT CLAIR SHORES,MI,,48082,,United States,,,5862946642,
mchinton@yahoo.com,michelle,hinton,21-Apr,81 e hemlock ln,,union,WA,,98592,,United States,,,3608983788,
mcooney3@tampabay.rr.com,Michael,Cooney,21-Apr,6580 Seminole Blvd,Lot723,Seminole,FL,,33772,,United States,,,727-365-8604,
medley_tammy@yahoo.com,tammy,medley,21-Apr,16705 larry ln,,spiro,OK,,74959,,United States,,,9187213719,
mflynn4630@charter.net,Ed,Flynn,21-Apr,83 Reeves Rd,,Leicester,NC,,28748,,United States,,,8286834630,
mgkamish@gmail.com,Marsha,Kamish,21-Apr,21731 Park Brook Drive,,Katy,TX,,77450,,United States,,,8323816660,
michaelburns04@gmail.com,Michael,Burns,21-Apr,1130 S. Michigan Ave,Apt 2711,Chicago,IL,,60605,,United States,,,9179308769,
michaelfallon11@webster.edu,Michael,Fallon,21-Apr,225 Ne 10th Ave,,Ocala,FL,,34470,,United States,,,3522863753,
michele.rhodes@fccc.edu,Michele,Rhodes,21-Apr,360 Camp Hill Rd,,Fort Washington,PA,,19034,,United States,,,215-542-9845,
mik_meyer@msn.com,mik,meyer,21-Apr,10730 54th ave n,,Plymouth,MN,,55442,,United States,,,7632270609,
mjsorvillo@yahoo.com,mj,sorvillo,21-Apr,4233 n blueridge,,laporte,IN,,46350,,United States,,,773 677 4049,
mjwcontest@gmail.com,Melinda,Walters,21-Apr,17995 Gray Mare Lane,,Peyton,CO,,80831,,United States,,,7197492294,
mjwcontest@gmail.ocm,Melinda,Walters,21-Apr,17995 Gray Mare Lane,,Peyton,CO,,80831,,United States,,,7197492294,
monica_kirkham@yahoo.com,Monica,Kirkham,21-Apr,4750 Copen Ct,,Indianapolis,IN,,46221,,United States,,,3179377006,
mugsy43@wowway.com,Margaret,Solomon,21-Apr,38335 Littlefield Drive,,Sterling Heights,MI,,48312,,United States,,,5862681637,
nc60boats@yahoo.com,Russell,Holloman,21-Apr,2237 River Haven Lane,,Hoover,AL,,35244,,United States,,,2088915520,
nelsatdrums@yahoo.com,nels,erickson,21-Apr,10444 w. riverview dr.,,eden prairie,MN,,55347,,United States,,,9528332147,
nhaskell@windermere.com,Nancy,Haskell,21-Apr,5503 W Hayden Ln,,Spokane,WA,,99208,,United States,,,509 995-4999,
nnjnbehm@aol.com,nancy,behm,21-Apr,665 niagara  pkwy,,n. ton.,NY,,14120,,United States,,,716-694-3034,
oceanerin@gmail.com,erin,mccarthy,21-Apr,1144 sw janette ave,,port saint lucie,FL,,34953,,United States,,,5612364170,
Olden@optonline.net,Rochelle,King,21-Apr,2235 cruger ave apt 6f,,Bronx,NY,,10467,,United States,,,7187989083,
olearnickfamily@yahoo.com,Sharon,Olearnick,21-Apr,43 Shanaghan Road,,East Haddam,CT,,6423,,United States,,,869-373-4318,
orange31@aol.com,Shelley,Hunter,21-Apr,40 Robin Road,,Glastonbury,CT,,6033,,United States,,,8605597658,
oregondave@comcast.net,David,Lavares,21-Apr,20711 S Viewpoint Rd,,West Linn,OR,,97068,,United States,,,503-722-5194,
ozgirlie@verizon.net,Sherri,Booth,21-Apr,18091 Palm Dr.,,Hesperia,CA,,92345,,United States,,,760-885-0500,
palmese89@yahoo.com,Patrick,Palmese,21-Apr,30 Hartford Ave,,Bristol,CT,,6010,,United States,,,8609447589,
pam5960@hotmail.com,Pamela,Tenyak,21-Apr,2022 Cheshire Drive,,Saint Marys,OH,,45885,,United States,,,419-305-7287,
paoloscuri@gmail.com,Paolo,Scuri,21-Apr,4283 Express Ln Ste 165-729,,Sarasota,FL,,34238,,United States,,,9415386941,
patern55@aol.com,Patricia,Overholtzer,21-Apr,82292 mountain View,,Indio,CA,,92201,,United States,,,760 347-9238,
pcdressen@cableone.net,Pete,Dressen,21-Apr,1430 Pinon Shadow Drive,,Prescott,AZ,,86305,,United States,,,434 981-4597,
Pdxnelsons@aol.com,Lisa,Nelson,21-Apr,13795 NW Pettygrove Street,,Portland,OR,,97229,,United States,,,5035220543,
PEREZHAZELL@YAHOO.COM,HAZELL,PEREZ,21-Apr,3560 SW 23 TERRACE,,MIAMI,FL,,33145,,United States,,,7863574807,
pgwaltney@cox.net,Margaret,Gwaltney,21-Apr,31 URSO dRIVE,,wESTERLY,RI,,2891,,United States,,,401-315-5203,
phwyn13@gmail.com,Pat,Hodges,21-Apr,477 Moffat Loop,,Ovieso,FL,,32765,,United States,,,407-267-2722,
pkkhair@aol.com,peter,kouvaras,21-Apr,10083 wadsworth,,beach park,IL,,60099,,United States,,,8472099933,
pmms@ece.ucsb.edu,Peter,Melliar-Smith,21-Apr,PO Box 13963,,Santa Barbara,CA,,93107,,United States,,,805-448-8250,
pp10751@gmail.com,peggy,parrish,21-Apr,16801 SE 1st St,apt 32,vancouver,WA,,98684,,United States,,,3602547934,
pp25@charter.net,Pat,Dranbauer,21-Apr,25 Grace Avenue,,Barre,VT,,5641,,United States,,,802-476-6263,
princejhjwla@hotmail.com,john,prince,21-Apr,816 calle haya #16,,thousand oaks,CA,,91360,,United States,,,805-241-3245,
prinprhs@aol.com,robert,nardella,21-Apr,17 dulce lane,,dix hills,NY,,11746,,United States,,,631-586-1674,
ptooman@optonline.net,Patrick,Tooman,21-Apr,402 Main Street,,Sag Harbor,NY,,11963,,United States,,,(631) 725-05,
rackinup@yahoo.com,Sheila,Peoples,21-Apr,21036 Cedar Road,,Mc Calla,AL,,35111,,United States,,,2059965095,
ranandfran@hotmail.com,randy,brown,21-Apr,114 augusta street,,verona,VA,,24482,,United States,,,540-248-5429,
raven94504@aol.com,Lenore,Goldsmith,21-Apr,6 Village Ave,,Marlton,NJ,,8053,,United States,,,856-313-8084,
ray.searose@gmail.com,Ray,Butcher,21-Apr,POB 816,,Newport,OR,,97365,,United States,,,541-265-9867,
raywins2013@yahoo.com,Rachel,Browning,21-Apr,1656 9th Avenue,,Huntington,WV,,25703,,United States,,,304-633-5714,
regojomr@aol.com,Marie,Regojo,21-Apr,7945 SW 57 Avenue,B,Miami,FL,,33143,,United States,,,7865362722,
rell108@yahoo.com,Rebecca,Magee,21-Apr,5089 Government Boulevard #726,,Mobile,AK,,36693,,United States,,,251-366-1641,
rhdnbnc@yahoo.com,Robert,Davis,21-Apr,7175 Hwy 70 East,,New Bern,NC,,28562,,United States,,,252-636-2109,
richardfitch1@gmail.com,richard,fitch,21-Apr,1227 dorchester ave.,apt.b,baltimore,MD,,21207,,United States,,,4433416010,
rmoore109@verizon.net,Robert,Moore,21-Apr,45780 Nicholas Ct,,Great Mills,MD,,20634,,United States,,,240-744-6346,
Rn96@icloud.com,Emily,Haynes,21-Apr,603 Pine Drive,,Ocean Springs,MS,,39564,,United States,,,2288727295,
robelady@hotmail.com,shelly,pitt,21-Apr,305 e. hawthorne rd,,spokane,WA,,99218,,United States,,,509701-1305,
rosavalle67@yahoo.com,Rosa,Valle,21-Apr,154 Miller Street,Apt 1,Meriden,CT,,6450,,United States,,,203-915-3408,
roscocat1201@gmail.com,vickie,turner,21-Apr,616 n plesant ave,trl 23,spring valley,MN,,55975,,United States,,,5073694487,
rosiepye@earthlink.net,Rose,Pye,21-Apr,1410 Claremont Way,,Tustin,CA,,92782,,United States,,,714 697-5530,
rschivo@montecarlo.com,Renee,Schivo,21-Apr,2601 s apvilion center dr #2060,,las vegas,NV,,89135,,United States,,,702-423-8788,
rshloush@gmail.com,Rita,Shloush,21-Apr,"3005 Temple Gate Rd,",,Baltimore,MD,,21209,,United States,,,404-731-5477,
rtchesney@gmail.com,Romona,Chesney,21-Apr,108 Marlena Ave,,Piedmont,SC,,20673-9189,,United States,,,864-430-4158,
Samantine1@cox.net,Mariann,Jelinek,21-Apr,313 Burns Ln,,Williamsburg,VA,,23185,,United States,,,757-258-0204,
sapontzis@hotmail.com,Steve,Sapontzis,21-Apr,1496 Beacon,6,Brookline,MA,,2446,,United States,,,6175906508,
Sbdeb2@comcast.net,Deborah,Bonner,21-Apr,19 s union st,,Manahawkin,NJ,,8050,,United States,,,6095974464,
scoopashay@yahoo.com,Sherrie,Brokaw,21-Apr,4225 S 1000 W,,Roosevelt,UT,,84066,,United States,,,4358237888,
scottlynk@yahoo.com,Scott,Lynk,21-Apr,82 N Main Street,,Oakfield,NY,,14125,,United States,,,609-433-1125,
seoglesby44@yahoo.com,Sarah,Oglesby,21-Apr,370 Casa Norte Drive,2150,N las Vegas,NV,,89031,,United States,,,8434991253,
sexymullatto1@yahoo.com,karen,hunter,21-Apr,2315 ratcliffe ave,,louisville,KY,,40210,,United States,,,5022699281,
sfirsov1972@gmail.com,sergey,Firsov,21-Apr,333 Escuela ave,apt 141,Mountain View,CA,,94040,,United States,,,6502106804,
sfrith@northstate.net,Sarah,Frith,21-Apr,1720 Chestnut Glen Way,,High Point,NC,,27262,,United States,,,336-886-1720,
sgibbon@goodwin.com,Susan,Gibbon,21-Apr,160 Forest Drive,,Newington,CT,,6111,,United States,,,8602026800,
sharonbontz@gmail.com,Sharon,Bontz,21-Apr,1227 Dorchester Ave.,,Baltimore,MD,,21207,,United States,,,443-380-3729,
sharonduggan49@yahoo.com,sharon,duggan,21-Apr,3604 Kingsway dr.,,Baytown,TX,,77521,,United States,,,281-422-0691,
shelbydawson@bellsouth.net,Shelby,Dawson,21-Apr,3987 Philsdale Ave,,Memphis,TN,,38111,,United States,,,9017439682,
shenja1978@gmail.com,Evgeniya,Kulikova,21-Apr,333 Escuele ave,apt 141,Mountain View,CA,,94040,,United States,,,6502153156,
skgb2pdx@gmail.com,Scott,Kulhanek,21-Apr,12330 SE Bush St,Apt 41,Portland,OR,,97236,,United States,,,503-278-9649,
smsophia@verizon.net,Fred,Murray,21-Apr,809 Smoke Tree Road,,Pikesville,MD,,21208,,United States,,,410-653-1603,
sonsie68@gmail.com,Reya,Rogan,21-Apr,3900 RIviera Lane,,Elk Grove,CA,,95758,,United States,,,9168961836,
southflniceguy@yahoo.com,Jason,Tarlowe,21-Apr,11809 NW 11th Court,,Coral Springs,FL,,33071,,United States,,,9547576253,
spadoni.mary@yahoo.com,Mary,Spadoni,21-Apr,31-66 37th St. #4B,,Astoria,NY,,11103,,United States,,,2247666643,
srossfox@gmail.com,Stephen,Fox,21-Apr,2616 Peppertree Place,,Plano,TX,,75074,,United States,,,9724893089,
ssmith6100@aol.com,Stephen,Smith,21-Apr,4219 Cedar Ridge Trail,,Houston,TX,,77059,,United States,,,281-480-0628,
stacy.melendez@gmail.com,Stacy,Melendez,21-Apr,2111 Shepherd st,,wichita falls,TX,,76309,,United States,,,9407611529,
starrburger@verizon.net,Jamie,Burger,21-Apr,3 Marion Lane,,Scotch Plains,NJ,,7076,,United States,,,908-889-0657,
Stonestreetw@yahoo.com,William,Stonestreet,21-Apr,10002 Terrance Springs Lane,,Katy,TX,,77494,,United States,,,8326965204,
strwberi32@aol.com,toni,wright,21-Apr,600 aeronca dr,,saginaw,TX,,76179,,United States,,,8455496492,
stywu24@yahoo.com,Stanley,Wu,21-Apr,"2427 ALLEN ST, Apt 431",,DALLAS,TX,,75204,,United States,,,6187893132,
Sueburke57@gmail.com,Sue,Burke,21-Apr,3110 Brookwood Dr,,Portsmouth,OH,,45662,,United States,,,740-354-1621,
Suriordan@yahoo.com,Sue,Riordan,21-Apr,2296 Dana ave.,H2,Cincinnati,OH,,45208,,United States,,,5138719293,
susanrehm1@netscape.net,Susan,Rehm,21-Apr,165 Murray Avenue,,Piscataway,NJ,,8854,,United States,,,7326728860,
svetlik@roadrunner.com,Cleve,Svetlik,21-Apr,2545 Brainard Road,,Pepper Pike,OH,,44124,,United States,,,440-442-1006,
sykb@hotmail.com,Nancy,Chapman,21-Apr,5545 Van Gogh Way,,Yorba Linda,CA,,92887,,United States,,,7146927436,
sylvia.8@live.com,SYLVIA LOUISE,JACKSON,21-Apr,2000 VALENTINE AVE,APT 132,BRONX,NY,,10457,,United States,,,646-271-0758,
sylvia_panda@hotmail.com,Sylvia,Pando,21-Apr,2322 Tallyho Lane,,Palm Harbor,FL,,34683,,United States,,,727-902-4213,
tallrob@hotmail.com,ROBERT,MANNING,21-Apr,2013 E. WALLACE RD.,,KENDALLVILLE,KS,,46755,,United States,,,260-485-3913,
taylordoris@yahoo.com,Doris,Taylor,21-Apr,911 Blount Street,124,Raleigh,NC,,27604,,United States,,,919-771-9539,
terrancetoner@rogers.com,Terrance,Toner,21-Apr,14436 N. 87th Drive,,Peoria,AZ,,85381,,United States,,,6134822850,
terri.l.lane@gmail.com,Terrill,Lane,21-Apr,8705 Wescott Court,,San Diego,CA,,92129,,United States,,,619-861-6427,
themouserfamily@yahoo.com,Michelle,Mouser,21-Apr,3222 Brill Rd,,Indianapolis,IN,,46227,,United States,,,3172429664,
thuntco@yahoo.com,tommy,hunt,21-Apr,6014 desoto dr,,colorado springs,CO,,80922,,United States,,,719-550-4706,
Tinapl_36@yahoo.com,Tina,LoProto,21-Apr,1407 Teresa Dr Apt 2K,,Fort Lee,NJ,,7024,,United States,,,2014820010,
tischa@comcast.net,Tischa,Culver,21-Apr,106 Lawshe Dr.,,Pine Beach,NJ,,8741,,United States,,,7322672087,
tklocke1@outlook.com,tricia,klocke,21-Apr,881 doe ridge,,erlanger,KY,,41018,,United States,,,8593714205,
tlcnvegas2003@yahoo.com,Tammy,Coffin,21-Apr,837 Angelus Oaks Dr,,Henderson,NV,,89011,,United States,,,702-569-2210,
tlt4u38@yahoo.com,Tracy,Thier,21-Apr,805 112th St SE C104,,Everett,WA,,98208,,United States,,,4253748200,
tmagrino@earthlink.net,Tim,Magrino,21-Apr,4281 S Haven Dr,,Mason,OH,,45040-8629,,United States,,,513-336-7589,
tommyhuntjr@yahoo.com,rhonda,hunt,21-Apr,6014 desoto dr,,colorado springs,CO,,80922,,United States,,,719-550-4706,
traveling_couple@san.rr.com,John,Weigel,21-Apr,10625 Claridge Ct,,San Diego,CA,,92131,,United States,,,8585788410,
twistedsteelandsexappeal1@yahoo.com,keith,muckelroy,21-Apr,800 bellshire dr. apt#304,,conroe,TX,,77301,,United States,,,9367560882,
tylered@comcast.net,edward,salerno,21-Apr,553 winter street,,old forge,PA,,18518,,United States,,,5708783471,
uik524@hotmail.com,UN IM,KIM,21-Apr,32607 18TH PL SW,,Federal Way,WA,,98023,,United States,,,2062271150,
uilk524@hotmail.com,UN IM,KIM,21-Apr,32607 18TH PL SW,,Federal Way,WA,,98023,,United States,,,2062271150,
UKINNY@GMAIL.COM,Dorron,Lemesh,21-Apr,242 E 80TH ST APT 6B,,NEW YORK,NY,,10075,,United States,,,2123963153,
UNDERDOG1000@YAHOO.COM,JOHN,MCBREARTY,21-Apr,4331 CREEKSIDE BLVD,,KISSIMMEE,FL,,34746,,United States,,,570-926-9539,
vcvega@csupomona.edu,Victoria,Vega,21-Apr,1318 E Verness St,,West Covina,CA,,91790,,United States,,,626-332-9330,
vinvet59@gmail.com,Vinnie,Gibaldi,21-Apr,1 Wilderness Cove Rd.,,Asheville,NC,,28804,,United States,,,vinvet59@gma,
vkanoe0412@gmail.com,Vicenta,Billeaudeau,21-Apr,196 Castleridge Drive,A,Little Elm,TX,,75068,,United States,,,469-647-2442,
warmcats1@aol.com,Nancy,Warmuth,21-Apr,57 Prospect Street,,Utica,NY,,13501,,United States,,,3152696831,
wayne.brown@gmail.com,Wayne,Brown,21-Apr,3206 Stones Throw Ln,Apt 11,Durham,NC,,27713,,United States,,,9198195325,
webfelix@gmail.com,felix,arauz,21-Apr,38 players circle,,tinton falls,NJ,,7724,,United States,,,2012400769,
winninggrama1@aol.com,Janice,Olechoski,21-Apr,4231 G street,,Omaha,NE,,68107,,United States,,,402-734-2541,
wqgirl00@gmail.com,Shannon,Greene,21-Apr,519 Logan Hill Rd,,Chehalis,WA,,98532,,United States,,,3607408995,
www.david6469@cednturylink.net,David,Tolbert,21-Apr,1212  Observation  Dr  #102,,Las  Vegas,NV,,89128,,United States,,,702-360-9260,
www.david6469@centurylink.net,David,Tolbert,21-Apr,1212  Observation  Dr  #102,,702-360-9260,NV,,89128,,United States,,,702-360-9260,
zellmannc@yahoo.com,Carolyn,Zellmann,21-Apr,11365 N. Valley Drive,,Mequon,WI,,53092,,United States,,,262-302-0510,
zsazsablummer@2gmail.com,maryann,blummer,21-Apr,626 wabash ave,,atlantic city,NJ,,8401,,United States,,,2673408909,
zyon_taylor@yahoo.com,elanese,fountain,21-Apr,1709 maricopa drive,,oshkosh,WI,,54904,,United States,,,(920)2091875,
elaine_busch@yahoo.com,Elaine,Busch,21-Apr,3655 wagonwheel road,,EDMOND,OK,,73034,,USA,,,4053419393,
joeyray1952@yahoo.com,Joseph,Penn,21-Apr,1363 CR 4765,,Kempner,TX,,76539,,USA,,,2545421529,
ellensoffice@gmail.com,Ellen,Rettinger,21-Apr,1345 Sassafras Cir,,Mt Pleasant,SC,,29466,,USA,,,612-799-6379,
30000plz@gmail.com,kymberlee,hargrove,21-Apr,409 w ave g,,port aransas,TX,,78373,,USA,,,3612909574,
maggie_friend@hotmail.com,Margaret,Friend,21-Apr,2765 Oakshire Circle,,Cape Girardeau,MO,,63701,,USA,,,5733822493,
eaptdweller@mchsi.com,Lori,Egenberger,21-Apr,4810 SW 3rd St.,,Des Moines,IA,,50315,,USA,,,5159434214,
dyana_54@yahoo.com,dyana,thomas,21-Apr,21857 westdale ct,,ashburn,VA,,20148,,USA,,,917-562-6455,
evansreb004@yahoo.com,Rebecca,Evans,21-Apr,3616 Poteet Drive Apt. 631,,Mesquite,TX,,75150,,USA,,,4697329512,
angievyff@gmail.com,angela,vyff,21-Apr,3530 w. amazon drive #9,,eugene,OR,,97405,,USA,,,541-515-2090,
kingyellowman@hotmail.com,david,mcfadden,21-Apr,1822 barnett st,,jacksonville,FL,,32209,,USA,,,904-742-1742,
doug_walser@hotmail.com,Douglas,Walser,21-Apr,1262 Tulberry Circle,,Rochester,MI,,48306,,USA,,,5866750062,
ronwins@charter.net,Ron,Strauser,21-Apr,1009 Canyon Drive,,Coos Bay,OR,,97420,,USA,,,541-297-7018,
donnasanders26@gmail. com,Donna,Sanders,21-Apr,25706 Grand. Concourse,,Southfield,MI,,48075,,USA,,,3135748384,
tuff714@hotmail.com,thomas,hurley,21-Apr,3300 sunset beach lane,,suamico,WI,,54173,,USA,,,920-434-7975,
karenkye@yahoo.com,karen,Vance,21-Apr,17985 huntleigh ct ap 202,,country club hills,IL,,60478,,USA,,,773-507-5490,
angiepup7blue@yahoo.com,angela,kohn,21-Apr,21 belmont blvd,,orange park,FL,,32073,,USA,,,9044121420,
prparton@netzero.net,Phillip,Parton,21-Apr,479 Dry Canyon Dr.,,Frisco,TX,,75034,,USA,,,214-766-0185,
maryramji@yahoo.com,Mary,Ramji,21-Apr,7385 w 157th st #217,,Apple Valley,MN,,55124,,USA,,,6129199389,
sra37@aol.com,Lisa,Parnell,21-Apr,1302 Middle Circle,,North Chesterfield,VA,,23235,,USA,,,8048404331,
ccford50@cfl.rr.com,Chrissy,Ford,21-Apr,701 Meadowside Ct,,Orlando,FL,,32825,,USA,,,407-590-2552,
lethaholley@yahoo.com,LETHA,HOLLEY,21-Apr,118 VAN STALLEN ST,,ROCHESTER,NY,,14621,,USA,,,5853420055,
smokey13357@yahoo.com,mary,palmer,21-Apr,68 n fourth ave,,ilion,NY,,13357,,USA,,,3158940626,
pfsylvester@hotmail.com,Paul,Sylvester,21-Apr,819 N. State,,Appleton,WI,,54911,,USA,,,920-735-9115,
jn0210@comcast.net,James,Nolan,21-Apr,1948 Turquoise Trail,,Eagan,MN,,55122,,USA,,,651-686-6534,
johnmoreno412@yahoo.com,john,moreno,21-Apr,2655 E. Deer Springs Way - Apt. 2139,,North Las Vegas,NV,,89086,,USA,,,702-534-1307,
river1337@yahoo.com,Will,Hamilton,21-Apr,1337 Riverside Dr,,Huntington,IN,,46750,,USA,,,3665265,
aggiegrad02@gmail.com,Jessica,Gengler,21-Apr,800 Del Mar Lane,,Arlington,TX,,76012,,USA,,,6829999781,
owlcreek1@hotmail.com,Linda,Robertson,21-Apr,19600 Bluegrass Circle,,Flint,TX,,75762,,USA,,,9038944544,
www.david6469@centurylink.net,David,Tolbert,21-Apr,1212 Observation  Dr,,Las  Vegas,NV,,89128,,USA,,,(702) 360-9260,
mediasavy@hotmail.com,Don,Robertson,21-Apr,19600 Bluegrass Circle,,Flint,TX,,75762,,USA,,,9038944544,
df073049@gmail.com,daniel,fields,21-Apr,4158 gemstone terrace,,marietta,GA,,30062,,USA,,,4042169569,
tata4h@gmail.com,Tina,Morgan,21-Apr,1471 Lindsey ln.,,Southaven,MS,,38672,,USA,,,9018262613,
garperi0@gmail.com,Anthony,Garperio,21-Apr,3395 Kirkwood Drive,,Colorado Springs,CO,,80916,,USA,,,7195710127,
ali58a@comcast.net,Alison,Auble,21-Apr,2105 Grammercy Avenue,,Linwood,NJ,,08221,,USA,,,609-412-0513,
paulabradley1@yahoo.com,Paula,Bielski,21-Apr,6875 Mayer Road,,Cottrellville,MI,,48039,,USA,,,5863446542,
pgoldslager@insight.rr.com,Philip,Goldslager,21-Apr,4516 Queen Anne,,New Albany,OH,,43054,,USA,,,614-855-2466,
sforbes2804@yahoo.com,steven,forbes,21-Apr,4602 summit dr,,wichita falls,TX,,76310,,USA,,,9405956262,
markstram@sbcglobal.net,Mark,Stram,21-Apr,12701 audrey circle,,Garden Grove,CA,,92840,,USA,,,7147500413,
badleroy66@yahoo.com,harry,smith,21-Apr,1758winchester hwy,,fayetteville,TN,,37334,,USA,,,9312972027,
cainf@gvsu.edu,Frances,Cain,21-Apr,756 Bristol Ave NW,,Grand Rapids,MI,,49504,,USA,,,6164852512,
kbrschafran@verizon.net,Brenda,Schafran,21-Apr,20 Conover Lane,,Swainton,NJ,,08210,,USA,,,609-780-2689,
pkkhair@AOL.COM,peter,kouvaras,21-Apr,10083 wadsworth,,beach park,IL,,60099,,USA,,,8472099933,
dixiegal39452,Janice,Brannan,21-Apr,5204 Brushy Creek Road,,Lucedale,MS,,39452,,USA,,,601-947-2537,
eddhiggins@sbcglobal.net,Edward,Higgins,21-Apr,342 Papin Avenue,,Saint Louis,MO,,63119,,USA,,,314-567-1243,
choochoo1717@hotmail.com,shanna,brooks,21-Apr,8744 n river rd #19,,tampa,FL,,33635,,USA,,,8134950073,
soupcamp555@hotmail.com,DEBRA,CAMPBELL,21-Apr,255 KITTY KAT TR.,,USA,CA,,96122,,USA,,,5308362943,
sarahlou22@neo.rr.com,Sarah,Keatts,21-Apr,422 N Munroe Rd,,Tallmadge,OH,,44278,,USA,,,330-212-0437,
hollynmorton@yahoo.com,holly,carlson,21-Apr,661 s. calumet ave.,,aurora,IL,,60506,,USA,,,6307404087,
nightmair2u@yahoo.com,maryann,fricano,21-Apr,9200 bustleton ave heatherwood apts # 2207,,phila,PA,,19115,,USA,,,2672596264,
jsb812@yahoo.com,Janice,baker,21-Apr,45 falcon ave,,london,KY,,40744,,USA,,,6068775891,
phansen4@sbcglobal.net,Philip,Hansen,21-Apr,6839 Jamestown Drive,,West Bend,WI,,53090,,USA,,,(262) 335-4003,
chefintexcm@yahoo.com,Julie,Scott,21-Apr,2425 Sage Rd. Apt 147,,Houston,TX,,77018,,USA,,,8325454406,
david_metcalf@hotmail.com,David,Metcalf,21-Apr,2128 Oakmeadow Pl,,Bedford,TX,,76021,,USA,,,2149226084,
phteeter@aol.com,Petra,Teeter,21-Apr,25022 McBride Dr.,,San Antonio,TX,,78255,,USA,,,9195237994,
toomanygeorges@gmail.com,Dan,Boyle,21-Apr,175 Briggs St,,Syracuse,NY,,13208,,USA,,,3155584023,
tpd326@gmail.com,Timothy,Driscoll,21-Apr,405 N Erie St,,Wheeling,WV,,26003,,USA,,,3047804639,
Cnw1995@yahoo.com,Doug,Murphy,21-Apr,1426 Trailwood Dr.,,Crystal Lake,IL,,60014,,USA,,,3123625756,
amy_helton@bellsouth,Amy,Helton,21-Apr,910 Manchester Place,,Atlanta,GA,,30328,,USA,,,404-459-8195,
george.rankin1@gmail.com,George,Rankin,21-Apr,449 Dorland Road South,,Maplewood,MN,,55119,,USA,,,6517317984,
thecragarman@hotmail.com,CRAIG,RECH,21-Apr,132 AVE. D,,BILLINGS,MT,,59101,,USA,,,4068550099,
tde111@yahoo.com,Thomas,Ewald,21-Apr,4637 W. Sample St.,,South Bend,IN,,46619,,USA,,,574-282-1049,
rckleclaire@yahoo.com,Richard,LeClaire,21-Apr,209 East Angel Street,,Sandy,UT,,84070,,USA,,,8019799330,
jangene@zoominternet.net,Harold,Febus,21-Apr,990 Hickory Grove,,Medina,OH,,44256,,USA,,,330-725-4412,
ecoutts@sbcglobal.net,erik,coutts,21-Apr,2418 E. Grove Ave,,orange,CA,,92867,,USA,,,8189684054,
callawayshell@aol.com,Lakshmana,Manoharan,21-Apr,43025 Marwood Ct,,Leonardtown,MD,,2050,,USA,,,301-475-1725,
dblackaby@cox.net,Doris,Blackaby,21-Apr,2308 E Orangewood,,Phoenix,AZ,,85020,,USA,,,602.944.6361,
saraleigh1967@hotmail.com,Sara,Bridges,21-Apr,201 Lauren Lane,,Ringgold,GA,,30736,,USA,,,7069653742,
psychobeast80@yahoo.com,jason,winthrop,21-Apr,9200 bustleton ave heatherwood apts,,phila,PA,,19115,,USA,,,2674563385,
maryrook-nykrin@sbcglobal.net,Mary,Rook-Nykrin,21-Apr,38 Brook Ln,,Palos Park,IL,,60464,,USA,,,708-923-6405,
conlwan@yahoo.com,Connie,Wandell,21-Apr,690 NE Ventura,,Roseburg,OR,,97470,,USA,,,541-672-8280,
nechlaw@yahoo.com,John,Nechman,21-Apr,20423 Tamarron Dr,,Humble,TX,,77346,,USA,,,7138081000,
shirleyb5@msn.com,shirley,beermann,21-Apr,932 summit ave,,st paul park,MN,,55071,,USA,,,6517691911,
jlsweet96@yahoo.com,John,sweet,21-Apr,4101 Innovator Dr #1233,,Sacramento,CA,,95834,,USA,,,9166012372,
marthabonnie@yahoo.com,martha,bonnie,21-Apr,19 lincoln avenue,,saint albans,VT,,05478,,USA,,,8023099374,
smithsrmark@gmail.com,Mark,Smith Sr,21-Apr,16026 119th Road,,Jamaica,NY,,11434-2116,,USA,,,7187231352,
jonnyk_gojets@hotmail.com,jonny,kennedy,21-Apr,218 w north,,neosho,MO,,64850,,USA,,,4178256072,
jmont1515@comcast.net,John,Montalto,21-Apr,2744 Desert Rose Lane,,Santa Rosa,CA,,95407,,USA,,,707-569-1792,
kathy.mason@yahoo.com,kathy,mason,21-Apr,32 lake ave,,hunlock creek,PA,,18621,,USA,,,5704775820,
lkessler9@gmail.com,Lori,Kessler,21-Apr,85 Livingston Street,,Brooklyn,NY,,11201,,USA,,,9178418697,
j868123@hotmail.com,Janet,Kurecka,21-Apr,2554 Darwin Lane,,Saginaw,MI,,48603,,USA,,,989-799-3959,
gstansbery@yahoo.com,gloria,stansbery,21-Apr,17122 forelock way,,CROSBY,TX,,77532,,USA,,,2812275120,
Partyin007@Comcast.net,Rose,Brunson,21-Apr,152 Courtaulds Avenue West,,Saraland,AL,,36571,,USA,,,251-604-3268,
jenn_dun_80@yahoo.com,Jennifer,Dunaway,21-Apr,155 Panhandle Dr,,Pampa,TX,,79065,,USA,,,8064405883,
danitzacope@yahoo.com,danitza,cope,21-Apr,219 remington harbor court,,houston,TX,,77073,,USA,,,7138701490,
dalton_bill@yahoo.com,William,Dalton,21-Apr,12591 Cambridge Dr,,Saratoga,CA,,95070,,USA,,,408-255-3927,
mariasimon1973@yahoo.com,MARIA,simon,21-Apr,1117 west 15th street,,crowley,LA,,70526,,USA,,,337-523-7267,
jodsmi1@gmail.com,Jodi,Smith,21-Apr,1408D Autumn Lane,,Sylacauga,AL,,35150,,USA,,,2563692517,
littleandrich@gmail.com,RICHMOND,ROBINSON,21-Apr,585 N Main St. apt 6,,TOOELE,UT,,84074,,USA,,,4354969469,
bakerbj2@msn.com,Brian,Baker,21-Apr,50 SE Stotsbery Road,,Shelton,WA,,98584,,USA,,,2069099598,
metz5@att.net,BRIDGETTE,METZ,21-Apr,,,,,,,,USA,,,,
metz5@att.net,BRIDGETTE,METZ,21-Apr,,,,,,,,USA,,,,
cataerina@att.net,KATHERINA*,HARTMAN,21-Apr,,,,,,,,USA,,,,
raydan@bellsouth.net,DANETTE,DAVID,21-Apr,,,,,,,,USA,,,,
geb0344@att.net,GERALD,BOYD,21-Apr,,,,,,,,USA,,,,
rsosebee2@att.net,CATHY,SOSEBEE,21-Apr,,,,,,,,USA,,,,
willmarv@sbcglobal.net,MARVIN,WILLIAMS,21-Apr,,,,,,,,USA,,,,
rokewi53@att.net,ROBERT,WITHROW,21-Apr,,,,,,,,USA,,,,
rogerryman@att.net,ROGER,RYMAN,21-Apr,,,,,,,,USA,,,,
julie9889@att.net,JULIE,MONTGOMERY,21-Apr,,,,,,,,USA,,,,
gulfgal99@att.net,RUTH,PARKER,21-Apr,,,,,,,,USA,,,,
cynthia5823@att.net,CYNTHIA,WISE,21-Apr,,,,,,,,USA,,,,
jayfirst@att.net,JAY,FIRST,21-Apr,,,,,,,,USA,,,,
magmaljackson@att.net,MAGGIE,JACKSON,21-Apr,,,,,,,,USA,,,,
bjjordan1942@att.net,,,21-Apr,,,,,,,,USA,,,,
bubbasid2966@att.net,SID,MCGINNIS,21-Apr,,,,,,,,USA,,,,
roberts.leroy@sbcglobal.net,LEROY,ROBERTS,21-Apr,,,,,,,,USA,,,,
pantherfan588@att.net,JERRY,PENDLETON,21-Apr,,,,,,,,USA,,,,
ronald5022@att.net,RONALD,POPE,21-Apr,,,,,,,,USA,,,,
dgbrsand@sbcglobal.net,DONNA,SANDOVAL,21-Apr,,,,,,,,USA,,,,
larry2755@att.net,,,21-Apr,,,,,,,,USA,,,,
gunnybednarz@att.net,JEFFREY WAYNE,BEDNARZ,21-Apr,,,,,,,,USA,,,,
wstout46@att.net,WAYNE,STOUT,21-Apr,,,,,,,,USA,,,,
nroussel123@att.net,LISA,HILL,21-Apr,,,,,,,,USA,,,,
lilian0653@att.net,LILIAN,RIVERA,21-Apr,,,,,,,,USA,,,,
maricela19679148@att.net,MARICELA,PERICOLI,21-Apr,,,,,,,,USA,,,,
carolyn1898@att.net,CAROLYN,WALTMAN,21-Apr,,,,,,,,USA,,,,
margiorie@att.net,MARGIORIE,PERDOMO,21-Apr,,,,,,,,USA,,,,
ray999@att.net,RAY,ESHGHIPOUR*,21-Apr,,,,,,,,USA,,,,
crystal_rankin@att.net,CRYSTAL,RANKIN,21-Apr,,,,,,,,USA,,,,
anthonyhorvath@att.net,ANTHONY,HORVATHS,21-Apr,,,,,,,,USA,,,,
shayla9094@att.net,SHAYLA,BENOIT*,21-Apr,,,,,,,,USA,,,,
steven8328@att.net,STEVEN,ELLIS,21-Apr,,,,,,,,USA,,,,
reckyram@bellsouth.net,TERENCE,RECKARD,21-Apr,,,,,,,,USA,,,,
robsonc89@att.net,CHARLA,ROBSON,21-Apr,,,,,,,,USA,,,,
knightdavid@att.net,DAVID,KNIGHT,21-Apr,,,,,,,,USA,,,,
jocmiller@att.net,JOHN C,MILLER,21-Apr,,,,,,,,USA,,,,
tamekamoore1999@att.net,TAMEKA,MOORE,21-Apr,,,,,,,,USA,,,,
jeffreyking9164@att.net,JEFFREY,KING,21-Apr,,,,,,,,USA,,,,
sbciptv_8470699@att.net,ANNIE,JENKINS,21-Apr,,,,,,,,USA,,,,
yng2347@att.net,GLORIA,YNGUANZO,21-Apr,,,,,,,,USA,,,,
sbciptv_5637099@att.net,ELAINE,WINKLER,21-Apr,,,,,,,,USA,,,,
kitty.avila@att.net,KITTY,AVILA,21-Apr,,,,,,,,USA,,,,
cesar4440@att.net,CESAR,BRITO,21-Apr,,,,,,,,USA,,,,
raycrocker@att.net,RAYMOND,CROCKER,21-Apr,,,,,,,,USA,,,,
rpatterson3500@sbcglobal.net,RALPH,PATTERSON,21-Apr,,,,,,,,USA,,,,
sdb1954@att.net,DIANA,BRATTON,21-Apr,,,,,,,,USA,,,,
alice_carter@sbcglobal.net,ALICE,CARTER,21-Apr,,,,,,,,USA,,,,
eosullivandvm@att.net,ED,SULLIVAN,21-Apr,,,,,,,,USA,,,,
jenniferm001@att.net,JENNIFER,MITCHELL,21-Apr,,,,,,,,USA,,,,
sbciptv_5730917@att.net,JOAN,LYVINSOV,21-Apr,,,,,,,,USA,,,,
cherylmckinzie@bellsouth.net,CHERYL,MCKINZIE,21-Apr,,,,,,,,USA,,,,
sylviastrauss@att.net,SYLVIA,STRAUSS,21-Apr,,,,,,,,USA,,,,
cstghaynes@att.net,CHARLES,HAYNES,21-Apr,,,,,,,,USA,,,,
ronald4100@att.net,RONALD,ASMUNDSON,21-Apr,,,,,,,,USA,,,,
mjaros@att.net,MILROY,JAROSZEWSKI,21-Apr,,,,,,,,USA,,,,
richlanigan@att.net,RICHARD,LANIGAN,21-Apr,,,,,,,,USA,,,,
roli1289@att.net,ROLI,EFFIWATT,21-Apr,,,,,,,,USA,,,,
michellefuller1969@att.net,MICHELLE,FULLER,21-Apr,,,,,,,,USA,,,,
sidikat@att.net,SIDIKAT,AKINBUYO,21-Apr,,,,,,,,USA,,,,
hja955@att.net,HEIDI,ANDERSON,21-Apr,,,,,,,,USA,,,,
james.oliver9421@att.net,JAMES,OLIVER.,21-Apr,,,,,,,,USA,,,,
doris.mosson@att.net,DORIS,MOSSON,21-Apr,,,,,,,,USA,,,,
susan8930@att.net,SUSAN,DANSBY,21-Apr,,,,,,,,USA,,,,
bennie1381@att.net,BENNIE,ESQUIBEL,21-Apr,,,,,,,,USA,,,,
sheria0319@att.net,SHERIA,DAWSON,21-Apr,,,,,,,,USA,,,,
sammykb5@att.net,KEITH,BUCKLEY,21-Apr,,,,,,,,USA,,,,
jesusbarragan74@att.net,JESUS,BARRAGAN,21-Apr,,,,,,,,USA,,,,
millertx84@att.net,ANITA,MILLER,21-Apr,,,,,,,,USA,,,,
ajaxleo1983@att.net,ALFREDO,HERNANDEZ,21-Apr,,,,,,,,USA,,,,
rbcsngltn@att.net,,,21-Apr,,,,,,,,USA,,,,
jimjohns@sbcglobal.net,THERESA,JOHNS,21-Apr,,,,,,,,USA,,,,
mrs.macias@sbcglobal.net,MARLENE,ACUNA,21-Apr,,,,,,,,USA,,,,
mrs.macias@sbcglobal.net,MARLENE,ACUNA,21-Apr,,,,,,,,USA,,,,
mrs.macias@sbcglobal.net,MARLENE,ACUNA,21-Apr,,,,,,,,USA,,,,
trunie@att.net,TRUNIE,NIELSEN,21-Apr,,,,,,,,USA,,,,
kimberly5429@att.net,KIMBERLY,ANDRE,21-Apr,,,,,,,,USA,,,,
wilma6289@att.net,WILMA,BOBADILLA,21-Apr,,,,,,,,USA,,,,
robsonc89@att.net,CHARLA,ROBSON,21-Apr,,,,,,,,USA,,,,
robsonc89@att.net,CHARLA,ROBSON,21-Apr,,,,,,,,USA,,,,
pitchpike08@sbcglobal.net,STEPHANIE,FOY,21-Apr,,,,,,,,USA,,,,
sbciptv_12110481@att.net,GEREC,NESTOR,21-Apr,,,,,,,,USA,,,,
jkthomas129@att.net,JAMES,THOMAS,21-Apr,,,,,,,,USA,,,,
ackardtp@swbell.net,TIM,ACKARD,21-Apr,,,,,,,,USA,,,,
vaszelay@att.net,MARIBEL,VASQUEZ,21-Apr,,,,,,,,USA,,,,
villegas-carlos@att.net,CARLOS,VILLEGAS,21-Apr,,,,,,,,USA,,,,
price8531@att.net,KAREN A,PRICE,21-Apr,,,,,,,,USA,,,,
tommy5843@att.net,TOMMY,BATES,21-Apr,,,,,,,,USA,,,,
lajuana1304@att.net,LAJUANA P,PAGE,21-Apr,,,,,,,,USA,,,,
lajuana1304@att.net,LAJUANA P,PAGE,21-Apr,,,,,,,,USA,,,,
lajuana1304@att.net,LAJUANA P,PAGE,21-Apr,,,,,,,,USA,,,,
erinj2014@att.net,ERIN,MARTINO,21-Apr,,,,,,,,USA,,,,
shiloh18@att.net,BONNIE,JOHNSON,21-Apr,,,,,,,,USA,,,,
1passionjones@att.net,BETTY,MORRISON*,21-Apr,,,,,,,,USA,,,,
timothywilliams4@bellsouth.net,TIMOTHY,WILLIAMS,21-Apr,,,,,,,,USA,,,,
scarlettbush@sbcglobal.net,KIRBY,BUSH,21-Apr,,,,,,,,USA,,,,
citabonifacio@att.net,CONCHITA,BONIFACIO,21-Apr,,,,,,,,USA,,,,
lagor@att.net,JOSEF,LAGOR,21-Apr,,,,,,,,USA,,,,
cairnok@att.net,CAROLYN,KRASSINGER,21-Apr,,,,,,,,USA,,,,
ddette1011@att.net,CLAUDETTE,TAYLOR,21-Apr,,,,,,,,USA,,,,
cathy.vaughn@att.net,CATHY,VAUGHN,21-Apr,,,,,,,,USA,,,,
negrete.george@att.net,GEORGE,NEGRETE,21-Apr,,,,,,,,USA,,,,
marilyn.4073@att.net,MARILYN.,LINSY,21-Apr,,,,,,,,USA,,,,
realtorkush@sbcglobal.net,URANA,KUSH,21-Apr,,,,,,,,USA,,,,
rory4242@att.net,RORY,WOOLWINE,21-Apr,,,,,,,,USA,,,,
indyhome4u@ameritech.net,BEVERLY,STEWART,21-Apr,,,,,,,,USA,,,,
mspyoung246263@att.net,PATRICK,YOUNG,21-Apr,,,,,,,,USA,,,,
marcus0521@att.net,MARCUS,GRANT,21-Apr,,,,,,,,USA,,,,
ray2516@att.net,RAY,COOKSEY,21-Apr,,,,,,,,USA,,,,
m3schmitt@sbcglobal.net,MIKE,SCHMITT,21-Apr,,,,,,,,USA,,,,
dwoodard1025@att.net,DON,WOODARD,21-Apr,,,,,,,,USA,,,,
twincreek.dr@att.net,RAYMOND,TOMPKINS,21-Apr,,,,,,,,USA,,,,
sharon5738@att.net,SHARON,PAYNE,21-Apr,,,,,,,,USA,,,,
johnwiechman@att.net,JOHN,WIECHMAN,21-Apr,,,,,,,,USA,,,,
sean8293@att.net,SEAN,PHILLIPS,21-Apr,,,,,,,,USA,,,,
eulalie2101@att.net,EULALIE,WOOLFOLK,21-Apr,,,,,,,,USA,,,,
leevellcrayton@att.net,CHRISTALA,GRICE,21-Apr,,,,,,,,USA,,,,
masondon@att.net,DON,MASON,21-Apr,,,,,,,,USA,,,,
amrosaud@att.net,AMRO,SAUD,21-Apr,,,,,,,,USA,,,,
donna9794@att.net,DONNA,HOLIDAY,21-Apr,,,,,,,,USA,,,,
cleocat98@att.net,JOHN,WIANECKI,21-Apr,,,,,,,,USA,,,,
diego8036@att.net,DIEGO,BARRAZA,21-Apr,,,,,,,,USA,,,,
jon0762@att.net,JON,STEVENS,21-Apr,,,,,,,,USA,,,,
ruth2037@att.net,RUTH,MERCADO,21-Apr,,,,,,,,USA,,,,
theresapowers1932@att.net,THERESA,POWER,21-Apr,,,,,,,,USA,,,,
melanie.taber2@att.net,MELANIE,TABER,21-Apr,,,,,,,,USA,,,,
antoinewilliams2@att.net,ANTOINE,WILLIAMS,21-Apr,,,,,,,,USA,,,,
antoinewilliams2@att.net,ANTOINE,WILLIAMS,21-Apr,,,,,,,,USA,,,,
junebarber@att.net,JUNE,BARBER,21-Apr,,,,,,,,USA,,,,
tnphenderson@att.net,TAMMY,HENDERSON,21-Apr,,,,,,,,USA,,,,
katie9620@att.net,KATIE,WASHINGTON,21-Apr,,,,,,,,USA,,,,
clifford5832@att.net,,,21-Apr,,,,,,,,USA,,,,
wade_mcfarland@att.net,WILLIAM,MCFARLAND,21-Apr,,,,,,,,USA,,,,
schtzoid@att.net,SHELLY,KING,21-Apr,,,,,,,,USA,,,,
daniel_ramon@att.net,DANIEL,RAMON,21-Apr,,,,,,,,USA,,,,
706120kdp@att.net,KELLY,PALMER,21-Apr,,,,,,,,USA,,,,
rickyrat@sbcglobal.net,RICK,RATLIFF,21-Apr,,,,,,,,USA,,,,
ewesananton@att.net,EILEEN,EDWARDS,21-Apr,,,,,,,,USA,,,,
adriana2507@att.net,ADRIANA,IBARRA,21-Apr,,,,,,,,USA,,,,
estreet5693@att.net,PETRICE,MARINI,21-Apr,,,,,,,,USA,,,,
juliufs@att.net,ADOLPH,RAMIEREZ,21-Apr,,,,,,,,USA,,,,
rland412@att.net,ROBERT,LAND,21-Apr,,,,,,,,USA,,,,
arjones1@sbcglobal.net,SANDRA,JONES,21-Apr,,,,,,,,USA,,,,
smhazuda@att.net,SEAN-MICHAEL,HAZUDA,21-Apr,,,,,,,,USA,,,,
myscorazones2009@att.net,MAYLA,FERNANDEZ,21-Apr,,,,,,,,USA,,,,
katrinascott9556@att.net,,,21-Apr,,,,,,,,USA,,,,
jvguhit@sbcglobal.net,JOE,GUHIT,21-Apr,,,,,,,,USA,,,,
jvguhit@sbcglobal.net,JOE,GUHIT,21-Apr,,,,,,,,USA,,,,
thomasread@att.net,THOMAS,READ,21-Apr,,,,,,,,USA,,,,
norman4466@att.net,NORMAN,WHITE,21-Apr,,,,,,,,USA,,,,
patrick.amante@att.net,PATRICK,AMANTE,21-Apr,,,,,,,,USA,,,,
mona7726@att.net,MONA,BOGUE,21-Apr,,,,,,,,USA,,,,
mona7726@att.net,MONA,BOGUE,21-Apr,,,,,,,,USA,,,,
gdwsjw@att.net,GEARL,WILDER,21-Apr,,,,,,,,USA,,,,
brbnelson@att.net,BARB,NELSON,21-Apr,,,,,,,,USA,,,,
brbnelson@att.net,BARB,NELSON,21-Apr,,,,,,,,USA,,,,
nerminemoawad@att.net,NERMINE,MOAWAD,21-Apr,,,,,,,,USA,,,,
tbass2528@att.net,THOMAS,BASS,21-Apr,,,,,,,,USA,,,,
haroldrice1955@att.net,DONA,RICE,21-Apr,,,,,,,,USA,,,,
rhavins@sbcglobal.net,ROSALEE,HAVINS,21-Apr,,,,,,,,USA,,,,
amari1533@att.net,AMARI,THOMAS,21-Apr,,,,,,,,USA,,,,
amari1533@att.net,AMARI,THOMAS,21-Apr,,,,,,,,USA,,,,
kakvan@sbcglobal.net,NANCY,KAKVAN,21-Apr,,,,,,,,USA,,,,
bjlee7002@att.net,WILLIE,LEE,21-Apr,,,,,,,,USA,,,,
csuris@att.net,CANDY,SURIS,21-Apr,,,,,,,,USA,,,,
erickbailey20@att.net,ERICK,BAILEY,21-Apr,,,,,,,,USA,,,,
jeff9341@att.net,JEFF,BEACH,21-Apr,,,,,,,,USA,,,,
aloysiusgreer@att.net,ALOYSIUS,GREER,21-Apr,,,,,,,,USA,,,,
elmerhanner@att.net,ELMER,HANNER,21-Apr,,,,,,,,USA,,,,
laura8343@att.net,LAURA,MONARES,21-Apr,,,,,,,,USA,,,,
lbellamy21@att.net,LAWRENCE,BELLAMY,21-Apr,,,,,,,,USA,,,,
vosslerjr@sbcglobal.net,JUNE,VOSSLER,21-Apr,,,,,,,,USA,,,,
salina5@att.net,MARY,BRANSON,21-Apr,,,,,,,,USA,,,,
lyzco1126@att.net,GARY,GARCIA*,21-Apr,,,,,,,,USA,,,,
tracey_bruce@att.net,TRACEY,BRUCE,21-Apr,,,,,,,,USA,,,,
tblack204@att.net,ROBERT,BLACK,21-Apr,,,,,,,,USA,,,,
arguellomusic@att.net,ALEJANDRO,ARGUELLO,21-Apr,,,,,,,,USA,,,,
carmen7202@att.net,CARMEN,VALDEZ,21-Apr,,,,,,,,USA,,,,
nusbaum2014@att.net,ROBERT,NUSBAUM,21-Apr,,,,,,,,USA,,,,
heather2047@att.net,HEATHER,COOPER,21-Apr,,,,,,,,USA,,,,
tracye_g@att.net,JOHN,JAMISON,21-Apr,,,,,,,,USA,,,,
joemcphail@att.net,JOE,MCPHAIL,21-Apr,,,,,,,,USA,,,,
scohen612@att.net,SCOTT,COHEN,21-Apr,,,,,,,,USA,,,,
scagnew2010@att.net,MARK,AGNEW,21-Apr,,,,,,,,USA,,,,
daniel.frazier58@att.net,DANIELL,FRAZIER,21-Apr,,,,,,,,USA,,,,
jeremy_s_gluck2003@att.net,JEREMY,GLUCK,21-Apr,,,,,,,,USA,,,,
msdixieannie11@att.net,HERMENEGILDO,VELEZ,21-Apr,,,,,,,,USA,,,,
dwojtkiewicz@sbcglobal.net,DENNIS,WOJTKIWICZ,21-Apr,,,,,,,,USA,,,,
lance195056@att.net,LANCE,ENGLAND,21-Apr,,,,,,,,USA,,,,
marlon5989@att.net,MARLON,POITIER,21-Apr,,,,,,,,USA,,,,
juanm2194@att.net,JUAN CARLOS,MUNOZ*,21-Apr,,,,,,,,USA,,,,
margretjohnson5948@att.net,MARGARET,JOHNSON,21-Apr,,,,,,,,USA,,,,
ytexan31992@att.net,YOLANDA,BARRIOS ARMSTRONG,21-Apr,,,,,,,,USA,,,,
joeygucf1@att.net,JOSE,GONZALEZ,21-Apr,,,,,,,,USA,,,,
susanag2286@att.net,SUSANA,GONZALEZ,21-Apr,,,,,,,,USA,,,,
cjoefish@sbcglobal.net,AZELIA L,COLLINS,21-Apr,,,,,,,,USA,,,,
johnnymgarner@sbcglobal.net,JOHN,GARNER,21-Apr,,,,,,,,USA,,,,
richard4453@sbcglobal.net,RICHARD,ROBINSON,21-Apr,,,,,,,,USA,,,,
beatriz.ypina@att.net,BEATRIZ,YPINA,21-Apr,,,,,,,,USA,,,,
ljscc0307@att.net,LIAM,KELLY,21-Apr,,,,,,,,USA,,,,
bill.fairbrother@att.net,WILLIAM,FAIRBROTHER,21-Apr,,,,,,,,USA,,,,
fosterkwkj@att.net,JULIA,FOSTER,21-Apr,,,,,,,,USA,,,,
cecilia3455@att.net,CECILIA',HERRERA,21-Apr,,,,,,,,USA,,,,
mercedesrojas@att.net,MERCEDES,ROJAS,21-Apr,,,,,,,,USA,,,,
tru2009@att.net,MELISSA,EUBANKS,21-Apr,,,,,,,,USA,,,,
slittle56@sbcglobal.net,JOHN,LITTLE,21-Apr,,,,,,,,USA,,,,
amschurman@att.net,AMANDA,SCHURMAN,21-Apr,,,,,,,,USA,,,,
nettieclegg@sbcglobal.net,CHARLES,CLEGG,21-Apr,,,,,,,,USA,,,,
pwswkr@att.net,BJ,ORSACK,21-Apr,,,,,,,,USA,,,,
martin30647070@att.net,MARTIN,MEDRANO,21-Apr,,,,,,,,USA,,,,
wilborn6883@att.net,WILBORN,STRODE,21-Apr,,,,,,,,USA,,,,
mariaelara@att.net,MARIA,LARA,21-Apr,,,,,,,,USA,,,,
sbciptv_6082392@att.net,BETTY,HOLLOWAY,21-Apr,,,,,,,,USA,,,,
bonzetta27061@att.net,BONZETTA,HOLDER,21-Apr,,,,,,,,USA,,,,
staggie@att.net,STAGGIE,OWENS,21-Apr,,,,,,,,USA,,,,
staggie@att.net,STAGGIE,OWENS,21-Apr,,,,,,,,USA,,,,
staggie@att.net,STAGGIE,OWENS,21-Apr,,,,,,,,USA,,,,
staggie@att.net,STAGGIE,OWENS,21-Apr,,,,,,,,USA,,,,
dazydolly@sbcglobal.net,DANIEL,CONTI,21-Apr,,,,,,,,USA,,,,
donwaggonner@att.net,DON,WAGGONNER,21-Apr,,,,,,,,USA,,,,
jenniferop@att.net,JUSTIN,SUTTON,21-Apr,,,,,,,,USA,,,,
dtylerbrown@att.net,DELORES,BROWN,21-Apr,,,,,,,,USA,,,,
mmadrid6390@att.net,MARLENE,MADRID,21-Apr,,,,,,,,USA,,,,
leon1604@att.net,LEON,PEACOCK,21-Apr,,,,,,,,USA,,,,
genexp01@att.net,RICHARD,RAMIREZ,21-Apr,,,,,,,,USA,,,,
llamay1983@att.net,LAWRENCE,LAMAY,21-Apr,,,,,,,,USA,,,,
rosa_serrano@bellsouth.net,RIGOBERTO,NAVAMUEL,21-Apr,,,,,,,,USA,,,,
terry.grainger@sbcglobal.net,TERANCE,GRAINGER,21-Apr,,,,,,,,USA,,,,
larry3607@att.net,LARRY,LUKE,21-Apr,,,,,,,,USA,,,,
klee1424@att.net,KATHLEEN,LEE,21-Apr,,,,,,,,USA,,,,
djeneba_muhammad@att.net,DJENEBA,MUHAMMAD,21-Apr,,,,,,,,USA,,,,
lowe0613@att.net,LANCE,LOWE,21-Apr,,,,,,,,USA,,,,
cjones8139@att.net,CURTIS,JONES,21-Apr,,,,,,,,USA,,,,
jeffrey5094@att.net,JEFFREY,CHERRY,21-Apr,,,,,,,,USA,,,,
jeffrey5094@att.net,JEFFREY,CHERRY,21-Apr,,,,,,,,USA,,,,
cathywhite9@att.net,CATHERINE,WHITE,21-Apr,,,,,,,,USA,,,,
dolores4769@att.net,DOLORES,RAGUDO,21-Apr,,,,,,,,USA,,,,
dolores4769@att.net,DOLORES,RAGUDO,21-Apr,,,,,,,,USA,,,,
dolores4769@att.net,DOLORES,RAGUDO,21-Apr,,,,,,,,USA,,,,
dolores4769@att.net,DOLORES,RAGUDO,21-Apr,,,,,,,,USA,,,,
dolores4769@att.net,DOLORES,RAGUDO,21-Apr,,,,,,,,USA,,,,
dolores4769@att.net,DOLORES,RAGUDO,21-Apr,,,,,,,,USA,,,,
athenapb1946@att.net,MARTHA,WATSON,21-Apr,,,,,,,,USA,,,,
keith.bird@att.net,KEITH,BIRD,21-Apr,,,,,,,,USA,,,,
hogan.genevia@att.net,DONALD,HOGAN,21-Apr,,,,,,,,USA,,,,
elpuma400@att.net,ERICA,CARMONA,21-Apr,,,,,,,,USA,,,,
angelsalamanca@att.net,ANGEL,SALAMANCA,21-Apr,,,,,,,,USA,,,,
santiago8212@att.net,SANTIAGO,DEL RIO,21-Apr,,,,,,,,USA,,,,
sbciptv_2076209@att.net,SALLY,DUDLEY,21-Apr,,,,,,,,USA,,,,
cedliz@att.net,ELIZABETH,JENKINS,21-Apr,,,,,,,,USA,,,,
sbciptv_8845319@att.net,THOMAS,WOOD,21-Apr,,,,,,,,USA,,,,
haydeerdgz43@att.net,HAYDEE,REYES,21-Apr,,,,,,,,USA,,,,
donald3673@att.net,DONALD,GRIMM,21-Apr,,,,,,,,USA,,,,
jaunt.ramirez1979@att.net,JUAN,RAMIREZ,21-Apr,,,,,,,,USA,,,,
morris1306@att.net,RONALD,MORRIS.,21-Apr,,,,,,,,USA,,,,
jjatkins@sbcglobal.net,JOLENE,ATKINS,21-Apr,,,,,,,,USA,,,,
katherine0844@att.net,KATHERINE,AZEVEDO,21-Apr,,,,,,,,USA,,,,
jdsalina@sbcglobal.net,DEBRA,DAVIS,21-Apr,,,,,,,,USA,,,,
smithjanean@att.net,JANEAN,SMITH,21-Apr,,,,,,,,USA,,,,
joe1497@att.net,JOE,GONZALES,21-Apr,,,,,,,,USA,,,,
guillermo8155@att.net,GUILLERMO,MACIAS,21-Apr,,,,,,,,USA,,,,
jenniewhitten@att.net,JENNIE,WHITTEN,21-Apr,,,,,,,,USA,,,,
angelabove619@att.net,CATHY,LAMB,21-Apr,,,,,,,,USA,,,,
jjaques61@att.net,JOSEPH,JAQUES,21-Apr,,,,,,,,USA,,,,
urchindiane@att.net,DIANE,DITTBERNER,21-Apr,,,,,,,,USA,,,,
ducediesel45@att.net,DELORES,MACK,21-Apr,,,,,,,,USA,,,,
kelly_johnny@att.net,JOHNNY,KELLY,21-Apr,,,,,,,,USA,,,,
mlsco1@att.net,SCOTT,MALEY,21-Apr,,,,,,,,USA,,,,
antonio3721@att.net,ANTONIO,DIAZ,21-Apr,,,,,,,,USA,,,,
manueldortanieves@att.net,MANUEL,DORTANIEVES,21-Apr,,,,,,,,USA,,,,
kingtevin@att.net,TEVIN,ROBINSON,21-Apr,,,,,,,,USA,,,,
debbie.redding@sbcglobal.net,DEBBIE,REDDING,21-Apr,,,,,,,,USA,,,,
solvey5474@att.net,SOLVEY,ARREAGA,21-Apr,,,,,,,,USA,,,,
sbciptv_12097214@att.net,MORRIS,EDNEY,21-Apr,,,,,,,,USA,,,,
nilka8187@att.net,NILKA,NAVALO,21-Apr,,,,,,,,USA,,,,
matthew0621@att.net,MATTHEW,ERNEST,21-Apr,,,,,,,,USA,,,,
nicole_key1971@att.net,NICOLE,KEY,21-Apr,,,,,,,,USA,,,,
showbizliz521@sbcglobal.net,MARIAM,HIRONIMUS,21-Apr,,,,,,,,USA,,,,
donaldrmccrorysr@bellsouth.net,DONALD,MCCRORY,21-Apr,,,,,,,,USA,,,,
donaldrmccrorysr@bellsouth.net,DONALD,MCCRORY,21-Apr,,,,,,,,USA,,,,
vincient7776@att.net,VINCIENT,PADUA,21-Apr,,,,,,,,USA,,,,
kent1531@att.net,LENORE,MANNELLA-SMITH,21-Apr,,,,,,,,USA,,,,
jmgwill@att.net,KELLY,WILL,21-Apr,,,,,,,,USA,,,,
sbciptv_11964375@att.net,CRYSTAL X,ANDERSON,21-Apr,,,,,,,,USA,,,,
porter2007@att.net,JONATHAN,PORTER,21-Apr,,,,,,,,USA,,,,
linda2835@att.net,LINDA,WASHINGTON,21-Apr,,,,,,,,USA,,,,
northwestnate@att.net,RONALD,GIBSON,21-Apr,,,,,,,,USA,,,,
sbciptv_5214536@att.net,ANNA,POREMBKA,21-Apr,,,,,,,,USA,,,,
audreyhop@att.net,AUDREY,BISHOP,21-Apr,,,,,,,,USA,,,,
imew0035@att.net,MARIAN,ASKEW,21-Apr,,,,,,,,USA,,,,
6honies@att.net,ROBERTO,VAZQUEZ,21-Apr,,,,,,,,USA,,,,
txsammons@sbcglobal.net,LINDSEY,SAMMONS,21-Apr,,,,,,,,USA,,,,
derek9048@att.net,DEREK,HUDDLESTON,21-Apr,,,,,,,,USA,,,,
robinson.dora@att.net,DORAFRANCES,ROBINSON,21-Apr,,,,,,,,USA,,,,
avis2555@att.net,AVIS,SUMMERLIN,21-Apr,,,,,,,,USA,,,,
avis2555@att.net,AVIS,SUMMERLIN,21-Apr,,,,,,,,USA,,,,
hi-jo@sbcglobal.net,HIDEKO,WYCOFF,21-Apr,,,,,,,,USA,,,,
nick2rust@att.net,KIM,THOMSON,21-Apr,,,,,,,,USA,,,,
jdland15751@att.net,GLENDA,LAND,21-Apr,,,,,,,,USA,,,,
gregtom@swbell.net,GREGORIO,PEREZ,21-Apr,,,,,,,,USA,,,,
bonbon1039@att.net,MARIE,BIGGS,21-Apr,,,,,,,,USA,,,,
hillpin@att.net,ROBERT J,SALBERGHI,21-Apr,,,,,,,,USA,,,,
anita6322@att.net,ANITA,NABERJAR,21-Apr,,,,,,,,USA,,,,
tito04@sbcglobal.net,JANIE,RODRIGUEZ,21-Apr,,,,,,,,USA,,,,
brsaner@att.net,LAWRENCE,SANER,21-Apr,,,,,,,,USA,,,,
ehiahuruike@att.net,OLIVER,EHIAHURUIKE,21-Apr,,,,,,,,USA,,,,
marilyn5980@att.net,X REQUESTED TO UPDATE EMAIL AS,JOHNSON,21-Apr,,,,,,,,USA,,,,
nlwwrx2330@att.net,MATTHEW,ZIGAN,21-Apr,,,,,,,,USA,,,,
hhhearts@hotmail.com,tammy,abercrombie,21-Apr,104 peach street,,denton,TX,,76209,,USA,,,940-735-7172,
virginia.alvarado@yahoo.com,VIRGINIA,ALVARADO,21-Apr,PO BOX 236,,BAYARD,NM,,88023,,USA,,,575-545-9266,
jsb812@yahoo.com,janice,baker,21-Apr,45 falcon ave,,london,KY,,40744,,usa,,,6068775891,
bargainbarger@msn.com,Lisa,Barger,21-Apr,649 J.H. Fauver Rd.,,Blountville,TN,,37617,,United States,,,423-323-8702,
mjbell2@windstream.net,Mary,Bell,21-Apr,275 county road 4171,,Ellsinore,MO,,63937,,United States,,,573-322-5420,
plasticways@yahoo.com,Jasmin,Bishop,21-Apr,1659 Rainbow Dream Ave,,Las Vegas,NV,,89183,,usa,,,7022859229,
kangabit@gmail.com,Pamela,Blythe,21-Apr,18310 Edgewood Rd,,Athens,AL,,35614,,United States,,,256-233-7279,
sbogner@aol.com,Stuart,Bogner,21-Apr,5737 Gresham Ave.,,Saint Louis,MO,,63109,,USA,,,314-351-9067,
ozgirlie@verizon.net,Sherri,Booth,21-Apr,18091 Palm Dr.,,Hesperia,CA,,92345,,USA,,,760-885-0500,
 m_mbridges@suddenlink.net,Marjorie,Bridges,21-Apr,"29 Fall Creek Dr., #1",,Branson,MO,,65616,,United States,,,4173361452,
christienburnett@gmail.com,Christien,Burnett,21-Apr,112 Levig Rd. ,,Port Angeles,WA,,98362,,usa,,,3608083757,
Pourboy16@hotmail.com,Adrian,Casbarian,21-Apr,13614 Village Green Dr,,Leesburg,VA,,20176,,USA,,,7737445993,
sykb@hotmail.com,Nancy,Chapman,21-Apr,5545 Van Gogh Way,,Yorba Linda,CA,,92887,,USA,,,7146927436,
amy.clark2@comcast.net,Amy,clark,21-Apr,po box 260,,Shirley ,IN,,47384,,USA ,,,7656235627,
mclarkgranny@hotmail.com,Mina,Clark,21-Apr,710 Barnes Mill Rd,,Richmond,KY,,40475,,United States,,,334-494-0300,
irishcork@optonline.net,Dennis,Collins,21-Apr,193 Nutmeg Dr.,,Torrington,CT,,6790,,United States,,,860-965-9187,
cordytiffany@yahoo.com,Tiffany,Cordy,21-Apr,5445 Preston oaks rd #333,,Dallas,TX,,75254,,United states,,,(646)319-9013,
unitedclaims1@aol.com,Scott,Coronato,21-Apr,4 Malcolm Drive,,Fairfield,NJ,,7004,,USA,,,973-439-9669,
grace.costello95@yahoo.com,josephine,costello,21-Apr,1144 forest ave,,lagrange park,IL,,60526,,united states,,,708-890-4841,
thomasdefrancesco,thomas,de francesco,21-Apr,5248 magnolia ave,,riverside,CA,,92506-1248,,san beradino,,,909-248-0444,
hamiltoninitiative@gmail.com,Jennifer,DeAngelis,21-Apr,1369 Rodman Road,,Hamilton,NY,,13346,,USA,,,3153171616,
hdgirl10@yahoo.com,Renee,Dhom,21-Apr,51 Windsor Rd,,Springfield,IL,,62702,,USA,,,217-622-9040,
jdgbp@att.net,John,Dickinson,21-Apr,236 Godfrey Rd SE,,Palm Bay,FL,,32909,,USA,,,901-335-4587,
doym47@verizon.net,Marcel,Doyon,21-Apr,362 Lydia Ave.,,Woonsocket,RI,,2895,,USA,,,401-762-4674,
jaymiemissu@hotmail.com,tonya,Dreese,21-Apr,103 teresa ct,,granbury,TX,,76049,,usa,,,682-500-4666,
sdjstarlake@hotmail.com,susan,Dyk,21-Apr,4305 yorkshire drive,,hudsonville,MI,,49426,,united states,,,6166690269,
eaptdweller@mchsi.com,Lori,Egenberger,21-Apr,4810 SW 3rd St.,,Des Moines,IA,,50315,,United States,,,5159434214,
tse2133@gmail.com,susanna,eiseman,21-Apr,2810 stoney ridge road,,avon,OH,,44011,,usa,,,440-934-1543,
melissawagnerblonde@yahoo.com,Melissa,English,21-Apr,3232 N. D ST,,San Bernardino,CA,,92405,,USA,,,951-836-1170,
Latakey@yahoo.com,Laura,Espino,21-Apr,2349 Beaver Falls Dr,,Norcross,GA,,30071,,USA,,,9413764221,
olesonkim@yahoo.com,kim,french,21-Apr,17903 W. Danielson St. #203,,Canyon Country,CA,,91387,,United States,,,661-360-7196,
olesonkim@yahoo.com,kim,french,21-Apr,17903 W. danielson St. #203,,CAnyon Country,CA,,91387,,United States,,,661-360-7196,
gearhartdestiny@yahoo.com,brandy,gearhart,21-Apr,903 leatherwood dr.,,new carlisle,OH,,45344,,u.s,,,9375361620,
sweetp13@msn.com,Krystle,Gonzalez,21-Apr,21336 s Alvar Pl,,carson,CA,,90745,,USA,,,3104890865,
navykat2001@yahoo.com,Judy,Gray,21-Apr,110 N 11Th St,,Hiawatha,KS,,66434,,USA,,,785-288-8438,
december1499@NetZero.com,Lena,Griffin,21-Apr,1323-89th Avenue #B,,Oakland,CA,,94621,,USA,,,5103790529,
naygrip123@gmail.com,Nadine,Grippe,21-Apr,303 1st Ave. ,,Frankfort,NY,,13340,,United States,,,3157171527,
rachaelwelcome@yahoo.com,Rachael,Haines,21-Apr,43 Elm Street,,Whitefield,NH,,3598,,United States,,,6038373283,
meh40@live.com,Morris,Haney,21-Apr,534 N. Warren ST.,,Warrensburg,MO,,64093,,USA,,,417-312-3447,
cathy@simpleeleganceflowers.com,cathy,hejka cunningham,21-Apr,2852 mayfair ave,,westchster,IL,,60154,,us,,,6306752888,
glennkh2@aol.com,Glenn,Hendrickson,21-Apr,2B Jill lane,,Sterling,MA,,1564,,USA,,,978-660-8676,
mikeh0114@gmail.com,Michael,Henriques,21-Apr,7800 Stansfield Dr,,Ft Worth,TX,,76137,,USA,,,8179134919,
markhibbing@hotmail.com,mark,hibbing,21-Apr,8611 merrick st,,riverside,CA,,92508,,usa,,,7143665784,
Td3229@aol.com,Tom,Hitch,21-Apr,39229 Salinas Drive,,Murrieta,CA,,92563,,USA,,,9512391641,
hlavacek_k@yahoo.com,kristin,hlavacek,21-Apr,10121 long st,,lenexa,KS,,66215,,united states,,,913-888-7512,
thejsandap@aol.com,john c,hlavaty,21-Apr,8826 mcnulty,,saint john,MO,,63114,,usa,,,3145994930,
hoseysteven@yahoo.com,Steven,Hosey,21-Apr,1384 lower myrick rd,,Laurel,MS,,39443,,usa,,,601-335-2897,
darkstar104@yahoo.com,krystal,humphrey,21-Apr,5729 flynn pkwy,,corpus christi,TX,,78413,,usa,,,361-290-1740,
sexymullatto1@yahoo.com,karen,hunter,21-Apr,2315 ratcliffe ave,,louisville,KY,,40210,,USA,,,5022699281,
just_tweaky@hotmail.com,Jennifer,Jackson,21-Apr,1109 Bell Ct,,Elyria,OH,,44035,,United States,,,440-324-7845,
kolstads@gmail.com,Kurt,Kolstad,21-Apr,205 Elmwood Drive,,Alexandria,MN,,56308,,USA,,,3207625225,
Bekomer@ yahoo.com,Bobi,Komer,21-Apr,2816 N. Rockwell Street,,Chicago,IL,,60618,,USA ,,,7736162180,
nkosmach@gmail.com,Nina,Kosmach,21-Apr,6966 Payte Lane,,North Richland Hills,TX,,76182,,USA,,,8177177226,
kraftconcreteinc@ymail.com,Jerry,Kraft,21-Apr,310 E. Main St.,,Ashville,OH,,43103,,United States,,,7409833033,
bengalwin@yahoo.com,Eric,Kremer,21-Apr,2238 Arthur Ave,,Lakewood,OH,,44107,,USA,,,216-221-1040,
patti.lewis@live.com,Patricia,Lewis,21-Apr,10053 SW 81st Terrace Rd.,,Ocala,FL,,34481,,USA,,,352-246-4147,
chrisaliles2@gmail.com,chris,liles,21-Apr,985 stonecipher road,,tuscumbia,AL,,35674,,usa,,,2566278645,
camden234@yahoo.com,David,Lindbergh,21-Apr,2854 El Dorado St.,,Torrance,CA,,90503,,United States,,,310-989-6722,
shadowbev1@yahoo.com,Beverly,Lindbergh,21-Apr,2854 El Dorado St.,,Torrance,CA,,90503,,United States,,,310-618-9477,
pmm1952@yahoo.com,Patsy,Manka,21-Apr,410 S honey Lake Rd,,Burlington,WI,,53105,,USA,,,262-514-3202,
elevate04@sbcglobal.net,walker,martin,21-Apr,11181 covey ln,,frisco,TX,,75035,,usa,,,2144355593,
maryjmc@verizon.net,Mary Jane,McCall,21-Apr,2496 Oldfield Point Road,,Elkton,MD,,21921,,USA,,,4435534136,
donnieandjeanmoore@gmail.com,Jean,Moore,21-Apr,821 Parkview Drive,,Rushville,IN,,46173,,USA,,,765-969-8047,
bmorella60@gmail.com,Robert,Morella,21-Apr,174 Coleman Lane,,Powell,TN,,37849,,United States,,,865-640-5923,
terrymyers1967@att.net,Terry,Myers,21-Apr,908 george st.apt.e4,,warren,AR,,71671,,u.s.a,,,870-820-6833,
trentonnunnally@gmail.com,Trenton,Nunnally,21-Apr,9715 N.Bedford RD,,Macedonia,OH,,44056,,Macedonia,,,2163747228,
cowings77@yahoo.com,Carolyn,Owings,21-Apr,380 Timber Ridge Loop,,Show Low,AZ,,85901,,USA,,,6232568953,
padukones@yahoo.cxom,Sharmila,Padukone,21-Apr,"41262 Roberts Avenue, #71",,Fremont,CA,,94538,,USA,,,7323973990,
corey_parker@dell.com,corey,parker,21-Apr,4319 bremner ddr,,austin,TX,,78749,,united states,,,5129069410,
4parker@comcast.net,Janet,Parker,21-Apr,17781 Autumn Lane,,Macomb,MI,,48044,,United States,,,586-228-9224,
oparick@hotmail.com,Robert,Pierce,21-Apr,69 S. Woodhill Ave,,Binghamton,NY,,13904,,USA,,,1-607-7753952,
maryandphil2@cos.net,Mary,Pitre,21-Apr,206 Riverpoint Drive,,Destrehan,LA,,70047,,US,,,504-450-1130,
gmputtuck@msn.com,Gary,Puttuck,21-Apr,5820 Waterbury Way K,,Salt Lake City,UT,,84121,,USA,,,4359011328,
klr595360@yahoo.com,kenneth,reardon,21-Apr,417mary,,illinois,IL,,61603,,illinois,,,309340o730,
ellensoffic@gmail.com,Ellen,Rettinger,21-Apr,1345 Sassafras Cir,,Mt Pleasant,SC,,29466,,USA,,,612-799-6379,
lindarichard2573@yahoo.com,Linda,Richard,21-Apr,98-A- Rocky Fork rd,,Otway,OH,,45657,,USA,,,740-372-2150,
blr@wavecable.com,Barry,Richards,21-Apr,5337 Thunder Ridge Circle,,Rocklin,CA,,95765,,United States,,,916-420-1563,
rivas1923@yahoo.com,Debra,Rivas,21-Apr,2820 Bismarck St,,Vernon,TX,,76384,,USA,,,9404886313,
mattsbaby2012@att.net,ROSETTA,ROBINSON,21-Apr,414WEST COLLEGE,,GREENVILLE,IL,,62246,,U S A,,,618-690-2114,
isisthe12th@gmail.co ,linda,romer,21-Apr, 20 doe place,, staten Island,NY,,10310,,usa,,,7184478473,
Susannah7@yahoo.com,Susanna,Rowland,21-Apr,POBox 101675,,Ft Lauderdale,FL,,33310,,USA,,,954-552-5635,
ttoddrum@aol.com,todd,rumsey,21-Apr,422 sand creek rd apt 418 ,,albany,NY,,12205,,usa,,,8455186236,
jdsaunders1@juno.com,Jay,Saunders,21-Apr,505 West Central Avenue,,Dayton,OH,,45449,,United Sates,,,9377604791,
abba15317@cocast.net,Joe,Scandale,21-Apr,110 Lakeview  Dr,,Washington,PA,,15301,,USA,,,7242290321,
helenasc666@yahoo.com,Helena,Scott,21-Apr,4404 Wildwood Cir,,Granbury,TX,,76049,,United States,,,817-326-5785,
texasrosecactus@yahoo.com,dora,sebree,21-Apr,303 n acacia ave unit b,,fullerton,CA,,92831,,usa,,,7143815203,
SHAWJAMES@15720014,James,SHAW,21-Apr,436W58ST,,LA,CA,,90037,,UNITED STATES,,,12139250750,
jen_52_1999@yahoo.com,Norma,Sheline,21-Apr,7900 94th Ave,,Pleasant Pr.,WI,,53158,,USA,,,262-484-4843,
veshultz@aol.com,Velvete,Shultz,21-Apr,10159 Chesham Drive,,Orlando,FL,,32817,,United States,,,4077187615,
jrslifer@aol.com,John,Slifer,21-Apr,8787 Hickory Hill,,Walkersville,MD,,21793,,USA,,,301-788-3122,
SPEERT@BELLSOUTH.NET,THOMAS,SPEER,21-Apr,909 SW LONGFELLOW RD,,PORT SAINT LUCIE,FL,,34953,,USA,,,7728712072,
pgsprag@charter.net,Polly,Spraggins,21-Apr,94 Chinquapin Pass,,Dadeville,AL,,36853,,US,,,256-596-2397,
sareahmaresmom@yahoo.com,Lisa,Spurgin,21-Apr,6931 south 500 east,,midvale,UT,,84047,,USA,,,8015622909,
csbm@juno.com,Cynthia,Stacey,21-Apr,174 Coleman Lane,,Powell,TN,,37849,,United States,,,865-945-1587,
melstalvey@hotmail.com,Melanie,Stalvey,21-Apr,2808 STALVEY OAKS DRIVE,,PLANT CITY,FL,,33563,,United States,,,813-541-9604,
ardie_steinbronn@yahoo.com,Ardie,Steinbronn,21-Apr,220 N. 15th St. E,,Riverton,WY,,82501,,USA,,,3074381176,
ronwins@charter.net,Ron,Strauser,21-Apr,1009 Canyon Drive,,Coos Bay,OR,,97420,,United States,,,541-297-7018,
stansuski28@comcast.net,STAN,SUSKI,21-Apr,51105 BIRCH ROAD,,GRANGER,IN,,46530,,U.S.A.,,,(574) 272-0325,
stansuski28@comcast.net,IVA,SUSKI,21-Apr,51105 BIRCH ROAD,,GRANGER,IN,,46530,,U.S.A.,,,(574) 272-0325,
carolt947@gmail.com,Lynn,Tereba,21-Apr,2554 Gramarcy Ave.,,Union City,CA,,94587,,USA,,,5108469797,
www.david6469@centurylink.net,David,Tolbert,21-Apr,1212  Observation  Dr  #102,,Las  Vegas,NV,,89128,,United  States,,,702-360-9260,
chris.vanvalkenburg@cox.net,Chris,Van Valkenburg,21-Apr,1128 Kingsway Ave.,,Yukon,OK,,73099,,USA,,,405-354-4017,
randyvigesaa@gmail.com,Randal,Vigesaa,21-Apr,621 w ave c ,,Bismarck,ND,,58501,,USA,,,7017891488,
doug_walser@hotmail.com,Douglas,Walser,21-Apr,1262 Tulberry Circle,,Rochester,MI,,48306,,USA,,,5866750062,
WalterJohnson@62comcast.net,walter,Walter,21-Apr,4415 kenndle rd.,,Jacksonville fla,FL,,32008,,united state,,,904-5512631,
allison47wl@gmail.com,Allison,Wilson,21-Apr,55central park N apt 328#,,New York,NY,,10026,,United States,,,3477939337,
pwood@stny.rr.com,Paul,Wood,21-Apr,18 Lincoln Street,,Waverly,NY,,14892,,USA,,,5704232832,
kwavon4you@hotmail.com,kelly,woods,21-Apr,1319 Hephziabh Mcbean rd,,Hephzibah,GA,,30815,,USA,,,7065921040,
SuzyScorpion@aol.com,Susan,Worsham,21-Apr,12 Rand Circle,,Danvers,MA,,1923,,USA,,,978-766-5675,
strwberi32@aol.com,toni,wright,21-Apr,600 aeronca dr,,saginaw,TX,,76179,,usa,,,8455496492,
sstanchfield2@gmail.com,Sherri,Stanchfield,21-Apr,13743 Tangerine Blvd,,West Palm Beach,FL,,33412,,United States,,,561-758-9135,
